Date	Time	Temperature	Humidity	Pressure	Altitude	Battery
06/04/2019	12:01A	75.90	86	1006	67.00	97.9
06/04/2019	12:06A	75.90	86	1006	67.00	98.1
06/04/2019	12:12A	75.90	86	1005	67.00	98.1
06/04/2019	12:17A	75.85	86	1005	67.00	98.1
06/04/2019	12:22A	75.74	87	1005	67.00	98.1
06/04/2019	12:28A	75.67	87	1005	67.00	98.1
06/04/2019	12:32A	75.56	87	1005	67.00	98.1
06/04/2019	12:37A	75.47	87	1005	67.00	98.1
06/04/2019	12:43A	75.34	87	1005	67.00	98.1
06/04/2019	12:48A	75.31	88	1005	67.00	98.1
06/04/2019	12:52A	75.33	88	1005	67.00	97.9
06/04/2019	12:58A	75.33	88	1005	67.00	97.9
06/04/2019	01:03A	75.27	88	1005	67.00	97.9
06/04/2019	01:08A	75.13	88	1005	67.00	97.8
06/04/2019	01:14A	75.00	88	1005	67.00	97.8
06/04/2019	01:18A	75.02	88	1005	67.00	97.8
06/04/2019	01:23A	75.04	88	1005	67.00	97.8
06/04/2019	01:29A	75.06	88	1005	67.00	97.8
06/04/2019	01:34A	75.09	88	1005	67.00	97.8
06/04/2019	01:39A	75.15	88	1005	67.00	97.8
06/04/2019	01:45A	75.15	88	1005	67.00	97.8
06/04/2019	01:49A	75.13	89	1005	67.00	97.8
06/04/2019	01:54A	75.11	88	1005	67.00	97.8
06/04/2019	02:00A	75.09	88	1005	67.00	97.8
06/04/2019	02:05A	75.07	88	1005	67.00	97.8
06/04/2019	02:10A	75.06	88	1005	67.00	97.8
06/04/2019	02:16A	75.02	88	1005	67.00	97.6
06/04/2019	02:20A	75.00	88	1005	67.00	97.8
06/04/2019	02:25A	74.98	88	1005	67.00	97.8
06/04/2019	02:31A	74.98	89	1004	67.00	97.8
06/04/2019	02:36A	74.97	89	1004	67.00	97.8
06/04/2019	02:41A	74.95	89	1004	67.00	97.8
06/04/2019	02:47A	74.89	89	1004	67.00	97.8
06/04/2019	02:51A	74.82	89	1004	67.00	97.6
06/04/2019	02:56A	74.77	88	1004	67.00	97.8
06/04/2019	03:02A	74.68	88	1004	67.00	97.6
06/04/2019	03:07A	74.62	88	1004	67.00	97.6
06/04/2019	03:12A	74.62	88	1004	67.00	97.6
06/04/2019	03:17A	74.61	88	1004	67.00	97.6
06/04/2019	03:22A	74.55	88	1004	67.00	97.4
06/04/2019	03:27A	74.53	88	1004	67.00	97.4
06/04/2019	03:33A	74.52	88	1004	67.00	97.4
06/04/2019	03:38A	74.46	88	1004	67.00	97.4
06/04/2019	03:42A	74.41	88	1004	67.00	97.4
06/04/2019	03:48A	74.41	88	1004	67.00	97.4
06/04/2019	03:53A	74.43	88	1004	67.00	97.4
06/04/2019	03:58A	74.43	88	1004	67.00	97.4
06/04/2019	04:04A	74.43	88	1004	67.00	97.4
06/04/2019	04:08A	74.43	88	1004	67.00	97.4
06/04/2019	04:13A	74.43	88	1004	67.00	97.4
06/04/2019	04:19A	74.44	88	1004	67.00	97.4
06/04/2019	04:24A	74.44	88	1004	67.00	97.4
06/04/2019	04:29A	74.48	88	1004	67.00	97.4
06/04/2019	04:35A	74.32	88	1004	67.00	97.2
06/04/2019	04:39A	74.16	89	1004	67.00	97.4
06/04/2019	04:44A	74.16	89	1004	67.00	97.4
06/04/2019	04:50A	74.19	89	1004	67.00	97.4
06/04/2019	04:55A	74.26	89	1004	67.00	97.4
06/04/2019	04:59A	74.32	89	1004	67.00	97.4
06/04/2019	05:05A	74.35	88	1004	67.00	97.2
06/04/2019	05:10A	74.37	89	1004	67.00	97.2
06/04/2019	05:15A	74.41	89	1004	67.00	97.2
06/04/2019	05:21A	74.41	89	1004	67.00	97.2
06/04/2019	05:26A	74.37	89	1004	67.00	97.2
06/04/2019	05:30A	74.37	89	1004	67.00	97.1
06/04/2019	05:36A	74.41	89	1004	67.00	97.1
06/04/2019	05:41A	74.44	89	1004	67.00	97.1
06/04/2019	05:46A	74.46	89	1004	67.00	97.1
06/04/2019	05:50A	74.48	89	1004	67.00	97.1
06/04/2019	05:53A	74.44	89	1004	67.00	97.1
06/04/2019	05:56A	74.44	89	1004	67.00	96.9
06/04/2019	05:59A	74.44	89	1004	67.00	96.9
06/04/2019	06:01A	74.46	89	1004	67.00	96.9
06/04/2019	06:04A	74.46	89	1004	67.00	96.9
06/04/2019	06:08A	74.46	89	1004	67.00	96.9
06/04/2019	06:11A	74.48	89	1005	67.00	96.7
06/04/2019	06:14A	74.50	89	1005	67.00	96.7
06/04/2019	06:17A	74.50	89	1005	67.00	96.5
06/04/2019	06:20A	74.50	89	1005	67.00	96.7
06/04/2019	06:24A	74.48	89	1005	67.00	96.7
06/04/2019	06:27A	74.50	89	1005	67.00	96.7
06/04/2019	06:29A	74.52	89	1005	67.00	96.7
06/04/2019	06:32A	74.53	89	1005	67.00	96.7
06/04/2019	06:35A	74.59	89	1005	67.00	96.5
06/04/2019	06:39A	74.59	89	1005	67.00	96.7
06/04/2019	06:42A	74.61	89	1005	67.00	96.5
06/04/2019	06:45A	74.61	89	1005	67.00	96.5
06/04/2019	06:48A	74.62	89	1005	67.00	96.5
06/04/2019	06:51A	74.64	89	1005	67.00	96.5
06/04/2019	06:54A	74.66	89	1005	67.00	96.5
06/04/2019	06:59A	74.70	89	1005	67.00	96.5
06/04/2019	07:04A	74.71	88	1005	67.00	96.5
06/04/2019	07:09A	74.66	88	1005	67.00	96.7
06/04/2019	07:15A	74.68	89	1005	67.00	96.8
06/04/2019	07:20A	74.71	88	1005	67.00	96.7
06/04/2019	07:24A	74.79	88	1005	67.00	96.8
06/04/2019	07:30A	74.80	88	1005	67.00	96.9
06/04/2019	07:35A	74.86	88	1005	67.00	96.9
06/04/2019	07:40A	74.95	88	1005	67.00	96.9
06/04/2019	07:46A	75.00	88	1005	67.00	96.9
06/04/2019	07:50A	75.07	88	1005	67.00	97.2
06/04/2019	07:55A	75.18	88	1005	67.00	97.5
06/04/2019	08:01A	75.33	88	1005	67.00	97.6
06/04/2019	08:06A	75.49	87	1005	67.00	97.9
06/04/2019	08:11A	75.61	87	1005	67.00	97.9
06/04/2019	08:16A	75.79	87	1005	67.00	98.5
06/04/2019	08:21A	76.03	86	1005	67.00	98.1
06/04/2019	08:26A	76.26	87	1005	67.00	98.8
06/04/2019	08:31A	76.60	87	1005	67.00	100.0
06/04/2019	08:37A	76.93	86	1005	67.00	100.0
06/04/2019	08:42A	77.25	85	1005	67.00	100.0
06/04/2019	08:46A	77.47	84	1005	67.00	100.0
06/04/2019	08:52A	77.65	84	1005	67.00	100.0
06/04/2019	08:57A	77.90	83	1005	67.00	100.0
06/04/2019	09:02A	78.08	83	1005	67.00	100.0
06/04/2019	09:08A	78.10	83	1005	67.00	100.0
06/04/2019	09:12A	77.99	83	1005	67.00	100.0
06/04/2019	09:17A	78.28	84	1005	67.00	100.0
06/04/2019	09:23A	79.81	82	1005	67.00	100.0
06/04/2019	09:28A	81.52	78	1004	67.00	100.0
06/04/2019	09:33A	82.92	75	1004	67.00	100.0
06/04/2019	09:38A	84.04	73	1004	67.00	100.0
06/04/2019	09:44A	84.43	72	1004	67.00	100.0
06/04/2019	09:48A	84.18	72	1004	67.00	100.0
06/04/2019	09:53A	84.22	72	1004	67.00	100.0
06/04/2019	09:59A	84.63	71	1005	67.00	100.0
06/04/2019	10:04A	83.55	73	1005	67.00	100.0
06/04/2019	10:09A	82.33	75	1005	67.00	100.0
06/04/2019	10:14A	82.85	75	1005	67.00	100.0
06/04/2019	10:19A	84.07	72	1005	67.00	100.0
06/04/2019	10:24A	84.45	72	1005	67.00	100.0
06/04/2019	10:30A	83.70	73	1005	67.00	100.0
06/04/2019	10:34A	83.93	73	1006	67.00	100.0
06/04/2019	10:39A	84.07	72	1006	67.00	100.0
06/04/2019	10:45A	84.00	73	1006	67.00	100.0
06/04/2019	10:50A	84.06	72	1005	67.00	100.0
06/04/2019	10:55A	84.29	72	1005	67.00	100.0
06/04/2019	11:01A	84.58	71	1005	67.00	100.0
06/04/2019	11:05A	85.01	71	1005	67.00	100.0
06/04/2019	11:10A	85.15	71	1005	67.00	100.0
06/04/2019	11:16A	84.97	71	1005	67.00	100.0
06/04/2019	11:21A	84.79	72	1005	67.00	100.0
06/04/2019	11:26A	84.56	72	1005	67.00	100.0
06/04/2019	11:30A	84.45	72	1005	67.00	100.0
06/04/2019	11:37A	84.38	73	1005	67.00	100.0
06/04/2019	11:41A	84.06	73	1005	67.00	100.0
06/04/2019	11:46A	84.06	73	1005	67.00	100.0
06/04/2019	11:51A	84.34	73	1005	67.00	100.0
06/04/2019	11:57A	84.25	73	1005	67.00	100.0
06/04/2019	12:02P	84.24	73	1005	67.00	100.0
06/04/2019	12:07P	84.69	73	1005	67.00	100.0
06/04/2019	12:12P	85.19	72	1005	67.00	100.0
06/04/2019	12:17P	85.03	72	1004	67.00	100.0
06/04/2019	12:22P	85.03	72	1004	67.00	100.0
06/04/2019	12:28P	85.21	72	1004	67.00	100.0
06/04/2019	12:33P	84.99	72	1004	67.00	100.0
06/04/2019	12:39P	85.23	72	1004	67.00	100.0
06/04/2019	12:44P	85.37	72	1004	67.00	100.0
06/04/2019	12:49P	85.51	71	1004	67.00	100.0
06/04/2019	12:55P	85.64	71	1004	67.00	100.0
06/04/2019	12:59P	85.55	71	1004	67.00	100.0
06/04/2019	01:04P	85.60	71	1004	67.00	100.0
06/04/2019	01:10P	85.46	71	1004	67.00	100.0
06/04/2019	01:15P	85.35	71	1004	67.00	100.0
06/04/2019	01:20P	85.24	71	1004	67.00	100.0
06/04/2019	01:25P	85.30	72	1004	67.00	100.0
06/04/2019	01:30P	85.30	71	1004	67.00	100.0
06/04/2019	01:35P	85.15	71	1004	67.00	100.0
06/04/2019	01:41P	84.92	72	1004	67.00	100.0
06/04/2019	01:46P	84.83	72	1004	67.00	100.0
06/04/2019	01:50P	84.81	73	1004	67.00	100.0
06/04/2019	01:55P	84.72	73	1004	67.00	100.0
06/04/2019	02:00P	84.60	74	1004	67.00	100.0
06/04/2019	02:07P	84.38	74	1004	67.00	100.0
06/04/2019	02:11P	84.24	75	1004	67.00	100.0
06/04/2019	02:16P	84.18	75	1004	67.00	100.0
06/04/2019	02:22P	84.11	74	1004	67.00	100.0
06/04/2019	02:27P	84.04	75	1004	67.00	100.0
06/04/2019	02:32P	84.00	74	1004	67.00	100.0
06/04/2019	02:36P	84.00	75	1003	67.00	100.0
06/04/2019	02:42P	84.00	75	1003	67.00	100.0
06/04/2019	02:47P	84.09	74	1003	67.00	100.0
06/04/2019	02:52P	84.04	75	1003	67.00	100.0
06/04/2019	02:58P	83.97	74	1003	67.00	100.0
06/04/2019	03:03P	83.88	75	1003	67.00	100.0
06/04/2019	03:07P	83.86	75	1003	67.00	100.0
06/04/2019	03:12P	83.86	75	1003	67.00	100.0
06/04/2019	03:18P	83.89	75	1003	67.00	100.0
06/04/2019	03:23P	83.95	75	1003	67.00	100.0
06/04/2019	03:28P	83.86	74	1003	67.00	100.0
06/04/2019	03:34P	83.66	75	1003	67.00	100.0
06/04/2019	03:38P	83.39	75	1003	67.00	100.0
06/04/2019	03:43P	83.55	76	1003	67.00	100.0
06/04/2019	03:49P	83.46	75	1003	67.00	100.0
06/04/2019	03:54P	83.79	74	1003	67.00	100.0
06/04/2019	03:59P	84.18	74	1003	67.00	100.0
06/04/2019	04:04P	84.36	73	1002	67.00	100.0
06/04/2019	04:10P	84.34	73	1002	67.00	100.0
06/04/2019	04:14P	84.27	73	1002	67.00	100.0
06/04/2019	04:19P	84.06	73	1002	67.00	100.0
06/04/2019	04:25P	84.11	73	1002	67.00	100.0
06/04/2019	04:30P	84.06	74	1002	67.00	100.0
06/04/2019	04:35P	84.22	73	1002	67.00	100.0
06/04/2019	04:40P	84.49	73	1002	67.00	100.0
06/04/2019	04:45P	84.60	73	1002	67.00	100.0
06/04/2019	04:50P	84.11	73	1003	67.00	100.0
06/04/2019	04:56P	83.93	74	1003	67.00	100.0
06/04/2019	05:01P	83.84	74	1003	67.00	100.0
06/04/2019	05:05P	83.71	74	1003	67.00	100.0
06/04/2019	05:10P	83.73	74	1003	67.00	100.0
06/04/2019	05:16P	83.66	74	1003	67.00	100.0
06/04/2019	05:21P	83.61	74	1003	67.00	100.0
06/04/2019	05:26P	83.52	74	1003	67.00	100.0
06/04/2019	05:32P	83.43	75	1003	67.00	100.0
06/04/2019	05:36P	83.28	74	1003	67.00	100.0
06/04/2019	05:41P	83.17	75	1003	67.00	100.0
06/04/2019	05:47P	82.96	75	1003	67.00	100.0
06/04/2019	05:50P	82.87	76	1003	67.00	100.0
06/04/2019	05:53P	82.81	76	1003	67.00	100.0
06/04/2019	05:56P	82.72	76	1003	67.00	100.0
06/04/2019	05:59P	82.69	77	1003	67.00	100.0
06/04/2019	06:03P	82.65	77	1003	67.00	100.0
06/04/2019	06:06P	82.56	77	1003	67.00	100.0
06/04/2019	06:08P	82.47	77	1003	67.00	100.0
06/04/2019	06:11P	82.44	78	1003	67.00	100.0
06/04/2019	06:14P	82.33	78	1003	67.00	100.0
06/04/2019	06:18P	82.29	79	1003	67.00	100.0
06/04/2019	06:21P	82.24	79	1003	67.00	100.0
06/04/2019	06:24P	82.18	79	1003	67.00	100.0
06/04/2019	06:27P	82.13	79	1003	67.00	100.0
06/04/2019	06:29P	82.04	79	1003	67.00	100.0
06/04/2019	06:33P	81.88	80	1003	67.00	100.0
06/04/2019	06:36P	81.64	80	1003	67.00	98.9
06/04/2019	06:39P	81.50	80	1003	67.00	98.9
06/04/2019	06:42P	81.28	81	1003	67.00	98.8
06/04/2019	06:45P	81.14	81	1003	67.00	98.8
06/04/2019	06:49P	81.12	81	1003	67.00	98.6
06/04/2019	06:52P	81.00	81	1004	67.00	98.8
06/04/2019	06:55P	80.89	81	1004	67.00	98.6
06/04/2019	06:58P	80.65	81	1004	67.00	98.6
06/04/2019	07:05P	80.49	81	1004	67.00	98.8
06/04/2019	07:10P	80.35	82	1004	67.00	98.8
06/04/2019	07:14P	80.19	81	1004	67.00	98.8
06/04/2019	07:21P	79.99	81	1004	67.00	98.8
06/04/2019	07:25P	79.95	82	1004	67.00	98.8
06/04/2019	07:30P	79.70	82	1004	67.00	98.6
06/04/2019	07:36P	79.29	83	1004	67.00	98.8
06/04/2019	07:41P	79.11	83	1004	67.00	98.8
06/04/2019	07:45P	79.00	84	1004	67.00	98.8
06/04/2019	07:51P	78.84	84	1004	67.00	98.8
06/04/2019	07:56P	78.78	84	1004	67.00	98.8
06/04/2019	08:01P	78.69	84	1004	67.00	98.6
06/04/2019	08:07P	78.49	84	1004	67.00	98.8
06/04/2019	08:12P	78.39	84	1005	67.00	98.8
06/04/2019	08:16P	78.33	85	1005	67.00	98.6
06/04/2019	08:22P	78.21	85	1005	67.00	98.6
06/04/2019	08:27P	78.08	85	1005	67.00	98.6
06/04/2019	08:32P	77.99	85	1005	67.00	98.5
06/04/2019	08:38P	77.97	85	1005	67.00	98.5
06/04/2019	08:42P	77.86	85	1005	67.00	98.5
06/04/2019	08:47P	77.76	86	1005	67.00	98.5
06/04/2019	08:53P	77.61	86	1005	67.00	98.5
06/04/2019	08:58P	77.61	86	1005	67.00	98.5
06/04/2019	09:03P	77.67	85	1005	67.00	98.5
06/04/2019	09:09P	77.72	86	1005	67.00	98.5
06/04/2019	09:13P	77.76	85	1005	67.00	98.5
06/04/2019	09:18P	77.74	85	1005	67.00	98.5
06/04/2019	09:24P	77.58	85	1005	67.00	98.5
06/04/2019	09:29P	77.31	86	1005	67.00	98.5
06/04/2019	09:33P	77.27	86	1005	67.00	98.5
06/04/2019	09:39P	77.16	86	1005	67.00	98.5
06/04/2019	09:44P	77.05	87	1005	67.00	98.5
06/04/2019	09:49P	76.82	87	1005	67.00	98.5
06/04/2019	09:55P	76.69	87	1005	67.00	98.5
06/04/2019	09:59P	76.64	87	1005	67.00	98.5
06/04/2019	10:04P	76.55	87	1005	67.00	98.5
06/04/2019	10:10P	76.50	87	1005	67.00	98.5
06/04/2019	10:15P	76.32	87	1005	67.00	98.3
06/04/2019	10:20P	76.05	88	1005	67.00	98.3
06/04/2019	10:26P	75.97	88	1005	67.00	98.2
06/04/2019	10:30P	75.87	88	1005	67.00	98.1
06/04/2019	10:35P	75.83	88	1005	67.00	98.1
06/04/2019	10:41P	75.78	88	1005	67.00	98.1
06/04/2019	10:46P	75.72	88	1005	67.00	98.1
06/04/2019	10:51P	75.65	89	1005	67.00	98.1
06/04/2019	10:57P	75.58	89	1005	67.00	98.1
06/04/2019	11:01P	75.47	89	1005	67.00	98.1
06/04/2019	11:06P	75.45	89	1005	67.00	98.1
06/04/2019	11:12P	75.40	89	1005	67.00	98.1
06/04/2019	11:17P	75.31	89	1005	67.00	98.1
06/04/2019	11:22P	75.33	89	1005	67.00	98.1
06/04/2019	11:27P	75.36	89	1005	67.00	97.9
06/04/2019	11:32P	75.42	89	1005	67.00	98.1
06/04/2019	11:37P	75.47	89	1005	67.00	98.1
06/04/2019	11:43P	75.51	89	1005	67.00	98.1
06/04/2019	11:48P	75.54	89	1005	67.00	98.1
06/04/2019	11:52P	75.60	89	1005	67.00	98.1
06/04/2019	11:58P	75.63	88	1005	67.00	97.9
06/05/2019	12:03A	75.56	88	1005	67.00	98.1
06/05/2019	12:08A	75.49	88	1005	67.00	98.1
06/05/2019	12:14A	75.42	89	1005	67.00	98.1
06/05/2019	12:18A	75.29	89	1005	67.00	97.9
06/05/2019	12:23A	75.25	89	1005	67.00	97.9
06/05/2019	12:29A	75.25	89	1005	67.00	97.9
06/05/2019	12:34A	75.20	89	1005	67.00	97.9
06/05/2019	12:39A	75.16	89	1005	67.00	97.8
06/05/2019	12:45A	75.15	89	1005	67.00	97.8
06/05/2019	12:49A	75.11	89	1005	67.00	97.8
06/05/2019	12:54A	75.07	89	1005	67.00	97.8
06/05/2019	01:00A	75.09	89	1005	67.00	97.8
06/05/2019	01:05A	75.11	89	1005	67.00	97.6
06/05/2019	01:09A	75.15	89	1005	67.00	97.8
06/05/2019	01:15A	75.18	89	1005	67.00	97.8
06/05/2019	01:20A	75.22	88	1005	67.00	97.8
06/05/2019	01:25A	75.22	88	1005	67.00	97.8
06/05/2019	01:31A	75.24	88	1005	67.00	97.8
06/05/2019	01:36A	75.22	88	1005	67.00	97.6
06/05/2019	01:40A	75.22	88	1005	67.00	97.8
06/05/2019	01:46A	75.27	88	1005	67.00	97.8
06/05/2019	01:51A	75.31	88	1005	67.00	97.8
06/05/2019	01:56A	75.36	88	1005	67.00	97.8
06/05/2019	02:02A	75.38	88	1005	67.00	97.8
06/05/2019	02:07A	75.34	88	1005	67.00	97.8
06/05/2019	02:11A	75.33	88	1005	67.00	97.8
06/05/2019	02:17A	75.33	88	1005	67.00	97.8
06/05/2019	02:22A	75.29	88	1004	67.00	97.8
06/05/2019	02:27A	75.25	88	1004	67.00	97.8
06/05/2019	02:33A	75.25	87	1004	67.00	97.8
06/05/2019	02:37A	75.24	87	1004	67.00	97.6
06/05/2019	02:42A	75.31	87	1004	67.00	97.6
06/05/2019	02:48A	75.34	87	1004	67.00	97.6
06/05/2019	02:53A	75.34	87	1004	67.00	97.5
06/05/2019	02:57A	75.36	87	1004	67.00	97.4
06/05/2019	03:03A	75.33	87	1004	67.00	97.4
06/05/2019	03:08A	75.24	87	1004	67.00	97.4
06/05/2019	03:13A	75.15	88	1004	67.00	97.4
06/05/2019	03:19A	75.13	88	1004	67.00	97.4
06/05/2019	03:24A	75.13	88	1004	67.00	97.4
06/05/2019	03:28A	75.09	88	1004	67.00	97.4
06/05/2019	03:34A	75.07	88	1004	67.00	97.4
06/05/2019	03:39A	75.06	88	1004	67.00	97.4
06/05/2019	03:44A	75.02	89	1004	67.00	97.4
06/05/2019	03:50A	75.02	89	1004	67.00	97.4
06/05/2019	03:54A	75.06	89	1004	67.00	97.4
06/05/2019	03:59A	75.11	89	1004	67.00	97.4
06/05/2019	04:04A	75.15	88	1004	67.00	97.4
06/05/2019	04:10A	75.18	88	1004	67.00	97.4
06/05/2019	04:15A	75.22	88	1004	67.00	97.4
06/05/2019	04:20A	75.25	88	1004	67.00	97.4
06/05/2019	04:26A	75.29	88	1004	67.00	97.4
06/05/2019	04:30A	75.33	88	1004	67.00	97.2
06/05/2019	04:35A	75.38	88	1004	67.00	97.4
06/05/2019	04:41A	75.40	88	1004	67.00	97.4
06/05/2019	04:46A	75.40	88	1004	67.00	97.2
06/05/2019	04:51A	75.31	88	1004	67.00	97.4
06/05/2019	04:57A	75.09	89	1004	67.00	97.2
06/05/2019	05:01A	74.89	89	1004	67.00	97.2
06/05/2019	05:06A	74.77	90	1004	67.00	97.1
06/05/2019	05:12A	74.68	90	1004	67.00	97.1
06/05/2019	05:17A	74.59	90	1004	67.00	97.1
06/05/2019	05:22A	74.55	91	1004	67.00	97.1
06/05/2019	05:27A	74.55	91	1004	67.00	97.1
06/05/2019	05:32A	74.53	91	1004	67.00	97.1
06/05/2019	05:37A	74.55	91	1004	67.00	96.9
06/05/2019	05:43A	74.57	91	1004	67.00	97.1
06/05/2019	05:46A	74.57	91	1004	67.00	97.1
06/05/2019	05:49A	74.57	91	1004	67.00	97.1
06/05/2019	05:52A	74.55	91	1004	67.00	97.1
06/05/2019	05:55A	74.57	91	1004	67.00	96.9
06/05/2019	05:59A	74.57	91	1004	67.00	96.9
06/05/2019	06:01A	74.55	91	1004	67.00	96.8
06/05/2019	06:04A	74.53	91	1004	67.00	96.7
06/05/2019	06:07A	74.50	91	1004	67.00	96.7
06/05/2019	06:10A	74.44	91	1004	67.00	96.7
06/05/2019	06:13A	74.39	91	1004	67.00	96.7
06/05/2019	06:17A	74.39	91	1004	67.00	96.7
06/05/2019	06:20A	74.39	91	1004	67.00	96.7
06/05/2019	06:23A	74.41	91	1004	67.00	96.7
06/05/2019	06:26A	74.41	91	1004	67.00	96.7
06/05/2019	06:28A	74.37	91	1004	67.00	96.7
06/05/2019	06:32A	74.37	91	1004	67.00	96.5
06/05/2019	06:35A	74.37	91	1004	67.00	96.5
06/05/2019	06:38A	74.37	91	1005	67.00	96.5
06/05/2019	06:41A	74.39	91	1005	67.00	96.5
06/05/2019	06:44A	74.41	91	1005	67.00	96.7
06/05/2019	06:48A	74.46	91	1005	67.00	96.7
06/05/2019	06:51A	74.52	90	1005	67.00	96.5
06/05/2019	06:54A	74.55	90	1005	67.00	96.7
06/05/2019	06:58A	74.62	90	1005	67.00	96.7
06/05/2019	07:03A	74.77	90	1005	67.00	96.7
06/05/2019	07:09A	74.86	89	1005	67.00	96.5
06/05/2019	07:14A	74.89	89	1005	67.00	96.5
06/05/2019	07:19A	74.91	89	1005	67.00	96.7
06/05/2019	07:25A	75.02	89	1005	67.00	97.6
06/05/2019	07:29A	75.20	89	1004	67.00	98.6
06/05/2019	07:34A	75.42	88	1004	67.00	98.5
06/05/2019	07:40A	75.63	87	1004	67.00	98.9
06/05/2019	07:45A	75.85	87	1004	67.00	100.0
06/05/2019	07:49A	76.15	87	1004	67.00	100.0
06/05/2019	07:55A	76.51	86	1004	67.00	100.0
06/05/2019	08:00A	76.86	85	1005	67.00	100.0
06/05/2019	08:05A	77.45	84	1004	67.00	100.0
06/05/2019	08:11A	77.63	83	1005	67.00	100.0
06/05/2019	08:16A	78.19	83	1004	67.00	100.0
06/05/2019	08:20A	79.16	81	1004	67.00	100.0
06/05/2019	08:26A	79.77	80	1004	67.00	100.0
06/05/2019	08:31A	80.65	79	1004	67.00	100.0
06/05/2019	08:36A	82.17	75	1004	67.00	100.0
06/05/2019	08:42A	83.12	73	1004	67.00	100.0
06/05/2019	08:46A	83.30	73	1004	67.00	100.0
06/05/2019	08:51A	83.61	73	1004	67.00	100.0
06/05/2019	08:57A	84.49	71	1004	67.00	100.0
06/05/2019	09:02A	85.87	69	1004	67.00	100.0
06/05/2019	09:06A	85.87	69	1004	67.00	100.0
06/05/2019	09:12A	85.44	70	1005	67.00	100.0
06/05/2019	09:17A	85.59	69	1005	67.00	100.0
06/05/2019	09:22A	86.58	68	1005	67.00	100.0
06/05/2019	09:28A	88.18	66	1005	67.00	100.0
06/05/2019	09:33A	89.60	63	1005	67.00	100.0
06/05/2019	09:37A	89.02	63	1005	67.00	100.0
06/05/2019	09:43A	88.79	64	1005	67.00	100.0
06/05/2019	09:48A	89.71	63	1005	67.00	100.0
06/05/2019	09:53A	90.14	63	1005	67.00	100.0
06/05/2019	09:58A	89.92	63	1005	67.00	100.0
06/05/2019	10:04A	89.37	65	1006	67.00	100.0
06/05/2019	10:08A	89.42	64	1006	67.00	100.0
06/05/2019	10:13A	88.79	65	1006	67.00	100.0
06/05/2019	10:19A	88.18	66	1006	67.00	100.0
06/05/2019	10:24A	87.53	67	1006	67.00	100.0
06/05/2019	10:29A	87.31	67	1006	67.00	100.0
06/05/2019	10:34A	87.55	67	1006	67.00	100.0
06/05/2019	10:39A	87.58	66	1006	67.00	100.0
06/05/2019	10:44A	87.19	68	1006	67.00	100.0
06/05/2019	10:50A	87.76	67	1006	67.00	100.0
06/05/2019	10:55A	88.92	66	1005	67.00	100.0
06/05/2019	10:59A	89.49	64	1005	67.00	100.0
06/05/2019	11:05A	89.71	64	1005	67.00	100.0
06/05/2019	11:10A	89.46	64	1005	67.00	100.0
06/05/2019	11:15A	89.28	64	1005	67.00	100.0
06/05/2019	11:20A	88.95	65	1006	67.00	100.0
06/05/2019	11:26A	88.75	65	1006	67.00	100.0
06/05/2019	11:31A	88.32	66	1006	67.00	100.0
06/05/2019	11:35A	88.07	66	1006	67.00	100.0
06/05/2019	11:41A	87.73	66	1006	67.00	100.0
06/05/2019	11:46A	86.45	68	1006	67.00	100.0
06/05/2019	11:51A	86.32	68	1006	67.00	100.0
06/05/2019	11:56A	86.16	69	1006	67.00	100.0
06/05/2019	12:02P	86.02	69	1006	67.00	100.0
06/05/2019	12:06P	85.75	70	1006	67.00	100.0
06/05/2019	12:11P	85.59	70	1005	67.00	100.0
06/05/2019	12:17P	85.86	70	1005	67.00	100.0
06/05/2019	12:22P	86.11	69	1005	67.00	100.0
06/05/2019	12:26P	86.14	69	1005	67.00	100.0
06/05/2019	12:32P	86.27	69	1005	67.00	100.0
06/05/2019	12:37P	86.56	69	1005	67.00	100.0
06/05/2019	12:42P	86.52	68	1005	67.00	100.0
06/05/2019	12:48P	85.98	70	1005	67.00	100.0
06/05/2019	12:53P	85.98	70	1005	67.00	100.0
06/05/2019	12:57P	86.04	69	1005	67.00	100.0
06/05/2019	01:03P	85.96	70	1005	67.00	100.0
06/05/2019	01:08P	86.02	70	1005	67.00	100.0
06/05/2019	01:13P	85.98	70	1005	67.00	100.0
06/05/2019	01:19P	86.04	70	1005	67.00	100.0
06/05/2019	01:23P	86.05	70	1005	67.00	100.0
06/05/2019	01:28P	86.36	69	1004	67.00	100.0
06/05/2019	01:34P	86.72	68	1004	67.00	100.0
06/05/2019	01:39P	86.85	68	1004	67.00	100.0
06/05/2019	01:44P	86.70	68	1004	67.00	100.0
06/05/2019	01:50P	86.47	69	1004	67.00	100.0
06/05/2019	01:54P	86.47	69	1004	67.00	100.0
06/05/2019	01:59P	86.63	69	1004	67.00	100.0
06/05/2019	02:04P	86.36	69	1004	67.00	100.0
06/05/2019	02:10P	86.41	69	1004	67.00	100.0
06/05/2019	02:15P	86.85	68	1004	67.00	100.0
06/05/2019	02:19P	86.76	68	1004	67.00	100.0
06/05/2019	02:25P	86.83	68	1004	67.00	100.0
06/05/2019	02:30P	87.22	67	1003	67.00	100.0
06/05/2019	02:35P	87.28	67	1003	67.00	100.0
06/05/2019	02:41P	87.49	66	1003	67.00	100.0
06/05/2019	02:45P	87.93	66	1003	67.00	100.0
06/05/2019	02:50P	88.50	64	1003	67.00	100.0
06/05/2019	02:56P	88.93	64	1003	67.00	100.0
06/05/2019	03:01P	88.99	64	1003	67.00	100.0
06/05/2019	03:06P	88.95	65	1003	67.00	100.0
06/05/2019	03:11P	89.33	65	1003	67.00	100.0
06/05/2019	03:17P	88.92	65	1003	67.00	100.0
06/05/2019	03:21P	88.90	65	1003	67.00	100.0
06/05/2019	03:26P	89.17	64	1003	67.00	100.0
06/05/2019	03:32P	89.33	64	1003	67.00	100.0
06/05/2019	03:37P	89.31	63	1003	67.00	100.0
06/05/2019	03:42P	89.17	64	1003	67.00	100.0
06/05/2019	03:47P	88.79	64	1003	67.00	100.0
06/05/2019	03:53P	88.57	64	1003	67.00	100.0
06/05/2019	03:57P	88.86	64	1003	67.00	100.0
06/05/2019	04:02P	88.70	65	1003	67.00	100.0
06/05/2019	04:08P	88.50	65	1003	67.00	100.0
06/05/2019	04:13P	88.43	65	1003	67.00	100.0
06/05/2019	04:18P	88.48	65	1003	67.00	100.0
06/05/2019	04:22P	88.29	65	1003	67.00	100.0
06/05/2019	04:29P	88.03	66	1003	67.00	100.0
06/05/2019	04:33P	87.71	66	1003	67.00	100.0
06/05/2019	04:38P	87.57	67	1003	67.00	100.0
06/05/2019	04:44P	87.08	67	1003	67.00	100.0
06/05/2019	04:49P	86.74	68	1003	67.00	100.0
06/05/2019	04:54P	86.38	68	1003	67.00	100.0
06/05/2019	04:59P	86.29	68	1003	67.00	100.0
06/05/2019	05:04P	86.11	69	1003	67.00	100.0
06/05/2019	05:09P	85.98	69	1003	67.00	100.0
06/05/2019	05:14P	85.46	70	1003	67.00	100.0
06/05/2019	05:20P	85.15	71	1003	67.00	100.0
06/05/2019	05:25P	84.81	72	1003	67.00	100.0
06/05/2019	05:29P	84.42	72	1003	67.00	100.0
06/05/2019	05:34P	84.07	72	1003	67.00	100.0
06/05/2019	05:40P	83.88	72	1003	67.00	100.0
06/05/2019	05:45P	83.61	72	1003	67.00	100.0
06/05/2019	05:48P	83.35	72	1003	67.00	100.0
06/05/2019	05:51P	83.21	73	1003	67.00	100.0
06/05/2019	05:55P	83.03	73	1003	67.00	100.0
06/05/2019	05:58P	82.76	73	1003	67.00	100.0
06/05/2019	06:01P	82.72	73	1003	67.00	100.0
06/05/2019	06:03P	82.72	73	1003	67.00	100.0
06/05/2019	06:06P	82.54	73	1003	67.00	100.0
06/05/2019	06:10P	82.38	73	1003	67.00	100.0
06/05/2019	06:13P	82.29	74	1003	67.00	100.0
06/05/2019	06:16P	82.24	74	1003	67.00	100.0
06/05/2019	06:19P	81.93	74	1003	67.00	100.0
06/05/2019	06:22P	81.79	74	1003	67.00	100.0
06/05/2019	06:26P	81.72	75	1003	67.00	100.0
06/05/2019	06:29P	81.46	75	1003	67.00	100.0
06/05/2019	06:31P	81.39	75	1003	67.00	100.0
06/05/2019	06:34P	81.19	75	1003	67.00	100.0
06/05/2019	06:37P	81.19	75	1003	67.00	100.0
06/05/2019	06:40P	81.07	75	1003	67.00	100.0
06/05/2019	06:44P	80.85	75	1003	67.00	100.0
06/05/2019	06:47P	80.65	76	1003	67.00	100.0
06/05/2019	06:50P	80.51	76	1003	67.00	98.9
06/05/2019	06:52P	80.47	76	1003	67.00	98.8
06/05/2019	06:55P	80.38	76	1003	67.00	98.8
06/05/2019	07:00P	80.24	76	1003	67.00	98.8
06/05/2019	07:06P	80.04	76	1004	67.00	98.8
06/05/2019	07:11P	79.68	77	1004	67.00	98.8
06/05/2019	07:16P	79.43	77	1004	67.00	98.8
06/05/2019	07:22P	79.20	78	1004	67.00	98.8
06/05/2019	07:27P	78.93	78	1004	67.00	98.6
06/05/2019	07:31P	78.75	79	1004	67.00	98.8
06/05/2019	07:37P	78.58	79	1004	67.00	98.8
06/05/2019	07:42P	78.39	79	1004	67.00	98.8
06/05/2019	07:47P	78.19	79	1004	67.00	98.8
06/05/2019	07:53P	78.01	80	1004	67.00	98.8
06/05/2019	07:57P	77.81	80	1004	67.00	98.8
06/05/2019	08:02P	77.61	80	1004	67.00	98.6
06/05/2019	08:08P	77.41	80	1004	67.00	98.8
06/05/2019	08:13P	77.29	81	1004	67.00	98.8
06/05/2019	08:18P	77.18	81	1004	67.00	98.8
06/05/2019	08:24P	77.04	82	1004	67.00	98.8
06/05/2019	08:28P	76.87	82	1004	67.00	98.8
06/05/2019	08:33P	76.71	82	1004	67.00	98.6
06/05/2019	08:39P	76.62	83	1004	67.00	98.8
06/05/2019	08:44P	76.55	83	1004	67.00	98.6
06/05/2019	08:49P	76.41	83	1004	67.00	98.6
06/05/2019	08:54P	76.30	83	1004	67.00	98.6
06/05/2019	08:59P	76.17	83	1005	67.00	98.5
06/05/2019	09:04P	76.05	84	1005	67.00	98.5
06/05/2019	09:10P	75.90	84	1005	67.00	98.3
06/05/2019	09:15P	75.79	84	1005	67.00	98.5
06/05/2019	09:19P	75.69	84	1005	67.00	98.5
06/05/2019	09:25P	75.63	85	1005	67.00	98.5
06/05/2019	09:30P	75.54	85	1005	67.00	98.5
06/05/2019	09:35P	75.51	85	1005	67.00	98.5
06/05/2019	09:41P	75.43	85	1005	67.00	98.3
06/05/2019	09:46P	75.34	86	1005	67.00	98.5
06/05/2019	09:50P	75.27	86	1005	67.00	98.5
06/05/2019	09:56P	75.22	86	1005	67.00	98.5
06/05/2019	10:01P	75.20	86	1005	67.00	98.5
06/05/2019	10:06P	75.18	86	1005	67.00	98.5
06/05/2019	10:12P	75.15	86	1005	67.00	98.5
06/05/2019	10:16P	75.11	87	1005	67.00	98.5
06/05/2019	10:21P	75.13	87	1005	67.00	98.1
06/05/2019	10:27P	75.09	87	1005	67.00	98.5
06/05/2019	10:36P	75.11	87	1005	67.00	98.3
06/05/2019	10:42P	75.06	87	1005	67.00	98.2
06/05/2019	10:47P	75.02	87	1005	67.00	98.2
06/05/2019	10:52P	75.00	87	1005	67.00	98.1
06/05/2019	10:58P	75.02	87	1005	67.00	98.1
06/05/2019	11:03P	75.04	87	1005	67.00	98.1
06/05/2019	11:07P	75.06	87	1005	67.00	98.1
06/05/2019	11:13P	75.00	88	1005	67.00	98.1
06/05/2019	11:18P	74.97	88	1005	67.00	98.1
06/05/2019	11:23P	74.89	88	1005	67.00	98.1
06/05/2019	11:29P	74.84	88	1005	67.00	98.1
06/05/2019	11:34P	74.79	88	1006	67.00	98.1
06/05/2019	11:38P	74.75	88	1006	67.00	98.1
06/05/2019	11:44P	74.73	88	1006	67.00	98.1
06/05/2019	11:49P	74.75	88	1006	67.00	98.1
06/05/2019	11:54P	74.77	88	1006	67.00	98.1
06/06/2019	12:00A	74.75	88	1006	67.00	98.1
06/06/2019	12:04A	74.73	88	1006	67.00	98.1
06/06/2019	12:09A	74.71	88	1006	67.00	98.1
06/06/2019	12:15A	74.66	89	1006	67.00	98.1
06/06/2019	12:20A	74.66	89	1006	67.00	98.1
06/06/2019	12:24A	74.66	89	1006	67.00	98.1
06/06/2019	12:30A	74.66	89	1006	67.00	98.1
06/06/2019	12:35A	74.64	89	1006	67.00	97.9
06/06/2019	12:40A	74.59	89	1006	67.00	98.1
06/06/2019	12:46A	74.52	89	1006	67.00	97.9
06/06/2019	12:50A	74.44	89	1006	67.00	97.9
06/06/2019	12:55A	74.41	89	1006	67.00	97.9
06/06/2019	01:01A	74.44	89	1006	67.00	97.8
06/06/2019	01:06A	74.41	89	1006	67.00	97.8
06/06/2019	01:11A	74.39	89	1006	67.00	97.8
06/06/2019	01:17A	74.39	89	1006	67.00	97.8
06/06/2019	01:21A	74.41	89	1006	67.00	97.8
06/06/2019	01:26A	74.39	89	1006	67.00	97.8
06/06/2019	01:32A	74.43	89	1006	67.00	97.8
06/06/2019	01:37A	74.39	89	1006	67.00	97.8
06/06/2019	01:42A	74.39	89	1006	67.00	97.8
06/06/2019	01:48A	74.37	89	1006	67.00	97.8
06/06/2019	01:52A	74.34	89	1006	67.00	97.8
06/06/2019	01:57A	74.34	89	1006	67.00	97.8
06/06/2019	02:03A	74.32	89	1006	67.00	97.8
06/06/2019	02:08A	74.34	89	1006	67.00	97.8
06/06/2019	02:13A	74.35	89	1006	67.00	97.8
06/06/2019	02:19A	74.34	89	1006	67.00	97.8
06/06/2019	02:23A	74.30	89	1005	67.00	97.8
06/06/2019	02:28A	74.28	89	1005	67.00	97.8
06/06/2019	02:34A	74.25	89	1005	67.00	97.8
06/06/2019	02:39A	74.21	90	1005	67.00	97.8
06/06/2019	02:44A	74.17	90	1005	67.00	97.8
06/06/2019	02:49A	74.16	90	1005	67.00	97.6
06/06/2019	02:54A	74.16	90	1005	67.00	97.8
06/06/2019	02:59A	74.17	90	1005	67.00	97.8
06/06/2019	03:05A	74.16	90	1005	67.00	97.6
06/06/2019	03:10A	74.16	90	1005	67.00	97.6
06/06/2019	03:14A	74.17	89	1005	67.00	97.5
06/06/2019	03:20A	74.17	89	1005	67.00	97.5
06/06/2019	03:25A	74.14	90	1005	67.00	97.4
06/06/2019	03:30A	74.10	90	1005	67.00	97.4
06/06/2019	03:36A	74.10	90	1005	67.00	97.4
06/06/2019	03:40A	74.07	90	1005	67.00	97.4
06/06/2019	03:45A	74.05	90	1005	67.00	97.4
06/06/2019	03:51A	74.03	90	1005	67.00	97.4
06/06/2019	03:56A	73.99	90	1005	67.00	97.2
06/06/2019	04:01A	73.99	90	1005	67.00	97.4
06/06/2019	04:07A	73.98	90	1005	67.00	97.4
06/06/2019	04:11A	73.99	90	1005	67.00	97.4
06/06/2019	04:16A	74.03	90	1005	67.00	97.4
06/06/2019	04:22A	74.05	90	1005	67.00	97.4
06/06/2019	04:27A	74.10	90	1005	67.00	97.4
06/06/2019	04:31A	74.14	89	1005	67.00	97.2
06/06/2019	04:37A	74.21	89	1005	67.00	97.4
06/06/2019	04:42A	74.26	89	1005	67.00	97.4
06/06/2019	04:47A	74.28	89	1005	67.00	97.4
06/06/2019	04:53A	74.34	88	1005	67.00	97.4
06/06/2019	04:58A	74.39	88	1005	67.00	97.4
06/06/2019	05:02A	74.46	88	1005	67.00	97.4
06/06/2019	05:08A	74.52	87	1005	67.00	97.2
06/06/2019	05:13A	74.59	87	1005	67.00	97.4
06/06/2019	05:18A	74.55	87	1005	67.00	97.2
06/06/2019	05:24A	74.44	88	1005	67.00	97.2
06/06/2019	05:28A	74.39	88	1005	67.00	97.2
06/06/2019	05:33A	74.34	88	1005	67.00	97.2
06/06/2019	05:39A	74.32	88	1005	67.00	97.1
06/06/2019	05:44A	74.34	88	1005	67.00	97.1
06/06/2019	05:47A	74.37	88	1005	67.00	97.1
06/06/2019	05:51A	74.39	88	1005	67.00	97.1
06/06/2019	05:54A	74.37	88	1005	67.00	97.1
06/06/2019	05:56A	74.37	88	1005	67.00	97.1
06/06/2019	05:59A	74.37	88	1005	67.00	96.9
06/06/2019	06:02A	74.41	88	1005	67.00	96.9
06/06/2019	06:05A	74.43	88	1005	67.00	96.9
06/06/2019	06:09A	74.41	88	1005	67.00	96.8
06/06/2019	06:12A	74.35	88	1005	67.00	96.7
06/06/2019	06:15A	74.32	89	1005	67.00	96.7
06/06/2019	06:18A	74.28	89	1005	67.00	96.7
06/06/2019	06:20A	74.25	89	1005	67.00	96.7
06/06/2019	06:24A	74.23	89	1005	67.00	96.7
06/06/2019	06:27A	74.25	89	1005	67.00	96.7
06/06/2019	06:30A	74.23	89	1005	67.00	96.7
06/06/2019	06:33A	74.21	89	1005	67.00	96.7
06/06/2019	06:36A	74.14	89	1005	67.00	96.7
06/06/2019	06:39A	74.12	89	1005	67.00	96.8
06/06/2019	06:43A	74.14	90	1005	67.00	96.9
06/06/2019	06:46A	74.16	90	1005	67.00	96.8
06/06/2019	06:49A	74.08	90	1005	67.00	96.7
06/06/2019	06:52A	74.03	90	1005	67.00	96.8
06/06/2019	06:54A	74.05	90	1004	67.00	96.8
06/06/2019	06:59A	74.10	90	1004	67.00	96.8
06/06/2019	07:05A	74.23	90	1004	67.00	96.9
06/06/2019	07:10A	74.28	89	1004	67.00	97.1
06/06/2019	07:15A	74.34	89	1004	67.00	97.1
06/06/2019	07:21A	74.41	88	1004	67.00	97.2
06/06/2019	07:26A	74.53	88	1004	67.00	97.4
06/06/2019	07:30A	74.62	88	1004	67.00	97.6
06/06/2019	07:36A	74.62	88	1004	67.00	97.8
06/06/2019	07:41A	74.71	88	1004	67.00	97.9
06/06/2019	07:46A	74.82	88	1004	67.00	98.2
06/06/2019	07:52A	74.95	88	1004	67.00	98.6
06/06/2019	07:56A	75.04	87	1004	67.00	100.0
06/06/2019	08:01A	75.24	87	1004	67.00	100.0
06/06/2019	08:07A	75.47	87	1004	67.00	100.0
06/06/2019	08:12A	75.74	86	1004	67.00	100.0
06/06/2019	08:17A	76.05	85	1004	67.00	100.0
06/06/2019	08:21A	76.39	84	1004	67.00	100.0
06/06/2019	08:27A	76.69	84	1004	67.00	100.0
06/06/2019	08:32A	77.09	83	1004	67.00	100.0
06/06/2019	08:37A	77.59	82	1004	67.00	100.0
06/06/2019	08:43A	78.13	81	1004	67.00	100.0
06/06/2019	08:48A	78.62	81	1004	67.00	100.0
06/06/2019	08:52A	79.41	79	1004	67.00	100.0
06/06/2019	08:57A	80.40	77	1004	67.00	100.0
06/06/2019	09:03A	81.70	75	1004	67.00	100.0
06/06/2019	09:08A	83.14	72	1004	67.00	100.0
06/06/2019	09:13A	83.82	71	1004	67.00	100.0
06/06/2019	09:19A	84.78	69	1004	67.00	100.0
06/06/2019	09:24A	85.86	68	1004	67.00	100.0
06/06/2019	09:28A	86.99	66	1004	67.00	100.0
06/06/2019	09:33A	87.67	65	1004	67.00	100.0
06/06/2019	09:39A	87.87	65	1004	67.00	100.0
06/06/2019	09:44A	88.45	63	1004	67.00	100.0
06/06/2019	09:49A	89.24	62	1004	67.00	100.0
06/06/2019	09:55A	89.35	62	1004	67.00	100.0
06/06/2019	09:59A	89.40	62	1004	67.00	100.0
06/06/2019	10:04A	88.84	63	1004	67.00	100.0
06/06/2019	10:10A	87.53	64	1004	67.00	100.0
06/06/2019	10:15A	88.05	64	1004	67.00	100.0
06/06/2019	10:19A	89.76	61	1004	67.00	100.0
06/06/2019	10:25A	89.69	61	1005	67.00	100.0
06/06/2019	10:30A	89.87	61	1005	67.00	100.0
06/06/2019	10:35A	90.23	61	1005	67.00	100.0
06/06/2019	10:41A	90.52	61	1005	67.00	100.0
06/06/2019	10:46A	90.12	61	1005	67.00	100.0
06/06/2019	10:50A	90.14	61	1005	67.00	100.0
06/06/2019	10:56A	90.03	62	1005	67.00	100.0
06/06/2019	11:01A	90.73	61	1005	67.00	100.0
06/06/2019	11:06A	91.11	60	1005	67.00	100.0
06/06/2019	11:12A	90.14	60	1005	67.00	100.0
06/06/2019	11:16A	89.01	62	1004	67.00	100.0
06/06/2019	11:21A	90.46	60	1004	67.00	100.0
06/06/2019	11:27A	90.66	59	1004	67.00	100.0
06/06/2019	11:32A	91.27	59	1004	67.00	100.0
06/06/2019	11:37A	91.83	58	1004	67.00	100.0
06/06/2019	11:42A	92.68	57	1004	67.00	100.0
06/06/2019	11:47A	93.29	56	1004	67.00	100.0
06/06/2019	11:52A	93.18	56	1004	67.00	100.0
06/06/2019	11:58A	93.51	56	1004	67.00	100.0
06/06/2019	12:02P	93.70	55	1004	67.00	100.0
06/06/2019	12:07P	93.56	56	1004	67.00	100.0
06/06/2019	12:13P	93.94	54	1004	67.00	100.0
06/06/2019	12:18P	93.40	55	1004	67.00	100.0
06/06/2019	12:23P	93.76	55	1004	67.00	100.0
06/06/2019	12:29P	92.52	56	1004	67.00	100.0
06/06/2019	12:33P	91.33	58	1004	67.00	100.0
06/06/2019	12:38P	90.46	60	1004	67.00	100.0
06/06/2019	12:44P	90.73	59	1004	67.00	100.0
06/06/2019	12:49P	90.41	59	1004	67.00	100.0
06/06/2019	12:54P	89.58	61	1004	67.00	100.0
06/06/2019	12:59P	89.56	61	1004	67.00	100.0
06/06/2019	01:04P	90.09	61	1004	67.00	100.0
06/06/2019	01:09P	90.68	59	1004	67.00	100.0
06/06/2019	01:15P	90.21	60	1004	67.00	100.0
06/06/2019	01:20P	89.10	62	1004	67.00	100.0
06/06/2019	01:24P	89.83	61	1004	67.00	100.0
06/06/2019	01:29P	90.43	60	1004	67.00	100.0
06/06/2019	01:35P	89.87	61	1003	67.00	100.0
06/06/2019	01:40P	89.17	62	1003	67.00	100.0
06/06/2019	01:45P	89.56	61	1003	67.00	100.0
06/06/2019	01:51P	89.06	62	1003	67.00	100.0
06/06/2019	01:56P	89.08	62	1003	67.00	100.0
06/06/2019	02:00P	89.37	62	1003	67.00	100.0
06/06/2019	02:05P	89.82	61	1003	67.00	100.0
06/06/2019	02:11P	89.73	61	1003	67.00	100.0
06/06/2019	02:16P	89.67	61	1003	67.00	100.0
06/06/2019	02:21P	89.83	61	1003	67.00	100.0
06/06/2019	02:27P	89.62	62	1003	67.00	100.0
06/06/2019	02:31P	89.37	63	1003	67.00	100.0
06/06/2019	02:36P	88.99	64	1003	67.00	100.0
06/06/2019	02:42P	88.65	64	1003	67.00	100.0
06/06/2019	02:47P	88.57	64	1003	67.00	100.0
06/06/2019	02:52P	88.52	65	1003	67.00	100.0
06/06/2019	02:56P	88.70	65	1003	67.00	100.0
06/06/2019	03:03P	88.83	64	1003	67.00	100.0
06/06/2019	03:07P	88.57	66	1003	67.00	100.0
06/06/2019	03:12P	88.18	66	1002	67.00	100.0
06/06/2019	03:18P	87.73	67	1002	67.00	100.0
06/06/2019	03:23P	87.19	68	1002	67.00	100.0
06/06/2019	03:28P	87.01	68	1002	67.00	100.0
06/06/2019	03:33P	86.95	68	1002	67.00	100.0
06/06/2019	03:38P	86.83	68	1002	67.00	100.0
06/06/2019	03:43P	86.63	69	1002	67.00	100.0
06/06/2019	03:49P	86.38	70	1002	67.00	100.0
06/06/2019	03:54P	86.40	70	1002	67.00	100.0
06/06/2019	03:58P	86.23	70	1002	67.00	100.0
06/06/2019	04:04P	85.95	70	1002	67.00	100.0
06/06/2019	04:09P	85.68	71	1002	67.00	100.0
06/06/2019	04:14P	85.57	71	1002	67.00	100.0
06/06/2019	04:19P	85.48	71	1002	67.00	100.0
06/06/2019	04:25P	85.51	71	1002	67.00	100.0
06/06/2019	04:29P	85.51	71	1002	67.00	100.0
06/06/2019	04:34P	85.51	71	1002	67.00	100.0
06/06/2019	04:40P	85.37	71	1002	67.00	100.0
06/06/2019	04:45P	85.24	72	1002	67.00	100.0
06/06/2019	04:50P	85.01	72	1002	67.00	100.0
06/06/2019	04:54P	84.69	72	1002	67.00	100.0
06/06/2019	05:01P	84.63	73	1002	67.00	100.0
06/06/2019	05:05P	84.56	73	1002	67.00	100.0
06/06/2019	05:10P	84.52	73	1003	67.00	100.0
06/06/2019	05:16P	84.49	73	1003	67.00	100.0
06/06/2019	05:21P	84.36	73	1003	67.00	100.0
06/06/2019	05:26P	84.13	74	1003	67.00	100.0
06/06/2019	05:30P	84.00	74	1003	67.00	100.0
06/06/2019	05:37P	83.80	74	1003	67.00	100.0
06/06/2019	05:41P	83.59	74	1003	67.00	100.0
06/06/2019	05:46P	83.44	75	1003	67.00	100.0
06/06/2019	05:50P	83.44	75	1003	67.00	100.0
06/06/2019	05:53P	83.46	75	1003	67.00	100.0
06/06/2019	05:56P	83.37	75	1003	67.00	100.0
06/06/2019	05:59P	83.28	76	1003	67.00	100.0
06/06/2019	06:02P	83.23	76	1003	67.00	100.0
06/06/2019	06:04P	83.17	76	1003	67.00	100.0
06/06/2019	06:08P	83.10	76	1003	67.00	100.0
06/06/2019	06:11P	83.07	76	1003	67.00	100.0
06/06/2019	06:14P	82.99	76	1003	67.00	100.0
06/06/2019	06:17P	82.94	77	1003	67.00	100.0
06/06/2019	06:20P	82.92	77	1003	67.00	100.0
06/06/2019	06:24P	82.87	76	1003	67.00	100.0
06/06/2019	06:27P	82.81	77	1003	67.00	100.0
06/06/2019	06:30P	82.81	77	1003	67.00	100.0
06/06/2019	06:32P	82.80	77	1003	67.00	100.0
06/06/2019	06:35P	82.76	77	1003	67.00	100.0
06/06/2019	06:39P	82.74	77	1003	67.00	100.0
06/06/2019	06:42P	82.71	77	1003	67.00	100.0
06/06/2019	06:45P	82.62	77	1003	67.00	100.0
06/06/2019	06:48P	82.62	77	1003	67.00	98.9
06/06/2019	06:51P	82.58	77	1003	67.00	98.8
06/06/2019	06:54P	82.53	77	1003	67.00	98.8
06/06/2019	06:58P	82.47	77	1003	67.00	98.8
06/06/2019	07:05P	82.40	78	1004	67.00	98.8
06/06/2019	07:09P	82.13	79	1004	67.00	98.8
06/06/2019	07:14P	81.86	79	1004	67.00	98.8
06/06/2019	07:20P	81.68	80	1004	67.00	98.8
06/06/2019	07:25P	81.59	80	1004	67.00	98.6
06/06/2019	07:30P	81.46	80	1004	67.00	98.8
06/06/2019	07:35P	81.27	81	1004	67.00	98.8
06/06/2019	07:40P	81.09	81	1004	67.00	98.8
06/06/2019	07:45P	81.00	81	1004	67.00	98.8
06/06/2019	07:51P	80.85	82	1004	67.00	98.8
06/06/2019	07:56P	80.78	82	1004	67.00	98.8
06/06/2019	08:01P	80.73	82	1004	67.00	98.8
06/06/2019	08:06P	80.74	82	1004	67.00	98.8
06/06/2019	08:11P	80.78	82	1004	67.00	98.8
06/06/2019	08:16P	80.78	82	1004	67.00	98.8
06/06/2019	08:22P	80.78	82	1004	67.00	98.8
06/06/2019	08:27P	80.78	83	1005	67.00	98.8
06/06/2019	08:31P	80.74	83	1005	67.00	98.6
06/06/2019	08:37P	80.71	83	1005	67.00	98.8
06/06/2019	08:42P	80.67	83	1005	67.00	98.8
06/06/2019	08:47P	80.62	83	1005	67.00	98.8
06/06/2019	08:53P	80.53	83	1005	67.00	98.8
06/06/2019	08:57P	80.47	83	1005	67.00	98.6
06/06/2019	09:02P	80.44	83	1005	67.00	98.6
06/06/2019	09:08P	80.40	83	1005	67.00	98.6
06/06/2019	09:13P	80.44	83	1005	67.00	98.6
06/06/2019	09:18P	80.46	83	1005	67.00	98.5
06/06/2019	09:24P	80.44	83	1005	67.00	98.5
06/06/2019	09:28P	80.42	83	1005	67.00	98.5
06/06/2019	09:33P	80.37	83	1005	67.00	98.5
06/06/2019	09:39P	80.28	84	1005	67.00	98.3
06/06/2019	09:44P	80.24	84	1005	67.00	98.5
06/06/2019	09:48P	80.22	84	1005	67.00	98.5
06/06/2019	09:54P	80.19	84	1005	67.00	98.5
06/06/2019	09:59P	80.20	84	1005	67.00	98.5
06/06/2019	10:04P	80.20	84	1005	67.00	98.5
06/06/2019	10:10P	80.20	84	1005	67.00	98.5
06/06/2019	10:14P	80.17	84	1005	67.00	98.5
06/06/2019	10:19P	80.15	84	1005	67.00	98.5
06/06/2019	10:25P	80.13	85	1005	67.00	98.5
06/06/2019	10:30P	80.11	85	1006	67.00	98.5
06/06/2019	10:35P	80.10	85	1006	67.00	98.5
06/06/2019	10:41P	80.10	85	1006	67.00	98.5
06/06/2019	10:45P	80.08	85	1006	67.00	98.5
06/06/2019	10:50P	80.04	85	1006	67.00	98.5
06/06/2019	10:56P	79.95	85	1006	67.00	98.5
06/06/2019	11:01P	79.90	86	1006	67.00	98.5
06/06/2019	11:06P	79.84	85	1006	67.00	98.3
06/06/2019	11:12P	79.74	85	1006	67.00	98.2
06/06/2019	11:16P	79.63	85	1006	67.00	98.2
06/06/2019	11:21P	79.54	85	1006	67.00	98.1
06/06/2019	11:27P	79.47	85	1006	67.00	98.1
06/06/2019	11:32P	79.38	85	1006	67.00	98.1
06/06/2019	11:37P	79.29	85	1006	67.00	98.1
06/06/2019	11:42P	79.20	85	1006	67.00	98.1
06/06/2019	11:47P	79.09	85	1006	67.00	98.1
06/06/2019	11:52P	79.02	86	1006	67.00	98.1
06/06/2019	11:58P	78.94	86	1006	67.00	98.1
06/07/2019	12:03A	78.91	86	1006	67.00	98.1
06/07/2019	12:07A	78.91	86	1006	67.00	98.1
06/07/2019	12:13A	78.85	86	1006	67.00	98.1
06/07/2019	12:18A	78.76	86	1006	67.00	98.1
06/07/2019	12:23A	78.66	86	1006	67.00	98.1
06/07/2019	12:29A	78.58	86	1006	67.00	97.9
06/07/2019	12:33A	78.53	86	1006	67.00	98.1
06/07/2019	12:38A	78.51	86	1006	67.00	98.1
06/07/2019	12:44A	78.48	87	1006	67.00	98.1
06/07/2019	12:49A	78.48	87	1006	67.00	98.1
06/07/2019	12:54A	78.46	87	1006	67.00	98.1
06/07/2019	01:00A	78.39	87	1006	67.00	98.1
06/07/2019	01:04A	78.30	87	1006	67.00	97.9
06/07/2019	01:09A	78.22	87	1006	67.00	97.9
06/07/2019	01:15A	78.15	87	1005	67.00	97.9
06/07/2019	01:20A	78.12	87	1005	67.00	97.9
06/07/2019	01:25A	78.06	87	1005	67.00	97.8
06/07/2019	01:30A	78.03	87	1005	67.00	97.8
06/07/2019	01:35A	77.99	87	1005	67.00	97.8
06/07/2019	01:40A	77.92	87	1005	67.00	97.8
06/07/2019	01:46A	77.85	87	1005	67.00	97.8
06/07/2019	01:51A	77.77	87	1005	67.00	97.8
06/07/2019	01:56A	77.68	87	1005	67.00	97.8
06/07/2019	02:01A	77.65	87	1005	67.00	97.8
06/07/2019	02:06A	77.59	87	1005	67.00	97.8
06/07/2019	02:11A	77.63	87	1005	67.00	97.8
06/07/2019	02:17A	77.61	87	1005	67.00	97.8
06/07/2019	02:22A	77.58	87	1005	67.00	97.8
06/07/2019	02:26A	77.49	87	1005	67.00	97.8
06/07/2019	02:32A	77.41	87	1005	67.00	97.8
06/07/2019	02:37A	77.32	88	1005	67.00	97.8
06/07/2019	02:42A	77.25	88	1005	67.00	97.8
06/07/2019	02:48A	77.20	88	1005	67.00	97.6
06/07/2019	02:52A	77.09	88	1005	67.00	97.8
06/07/2019	02:57A	77.04	88	1005	67.00	97.8
06/07/2019	03:03A	77.02	88	1005	67.00	97.8
06/07/2019	03:08A	77.00	88	1005	67.00	97.8
06/07/2019	03:13A	76.96	88	1005	67.00	97.8
06/07/2019	03:19A	76.86	88	1005	67.00	97.8
06/07/2019	03:23A	76.77	89	1005	67.00	97.6
06/07/2019	03:28A	76.80	89	1004	67.00	97.6
06/07/2019	03:34A	76.80	89	1004	67.00	97.6
06/07/2019	03:39A	76.82	89	1004	67.00	97.5
06/07/2019	03:43A	76.84	89	1004	67.00	97.4
06/07/2019	03:49A	76.82	89	1004	67.00	97.4
06/07/2019	03:54A	76.77	89	1004	67.00	97.4
06/07/2019	03:59A	76.73	89	1004	67.00	97.4
06/07/2019	04:05A	76.68	89	1004	67.00	97.4
06/07/2019	04:10A	76.59	89	1004	67.00	97.4
06/07/2019	04:14A	76.53	89	1004	67.00	97.4
06/07/2019	04:20A	76.53	89	1004	67.00	97.4
06/07/2019	04:25A	76.55	89	1004	67.00	97.4
06/07/2019	04:30A	76.55	89	1004	67.00	97.2
06/07/2019	04:36A	76.53	89	1004	67.00	97.4
06/07/2019	04:41A	76.55	89	1004	67.00	97.4
06/07/2019	04:45A	76.60	89	1004	67.00	97.4
06/07/2019	04:51A	76.62	89	1004	67.00	97.4
06/07/2019	04:56A	76.62	89	1004	67.00	97.4
06/07/2019	05:01A	76.59	88	1004	67.00	97.4
06/07/2019	05:07A	76.44	89	1004	67.00	97.2
06/07/2019	05:11A	76.41	89	1004	67.00	97.4
06/07/2019	05:16A	76.37	89	1004	67.00	97.4
06/07/2019	05:22A	76.35	89	1004	67.00	97.4
06/07/2019	05:27A	76.33	89	1004	67.00	97.4
06/07/2019	05:31A	76.33	89	1004	67.00	97.4
06/07/2019	05:37A	76.32	89	1004	67.00	97.2
06/07/2019	05:42A	76.30	89	1004	67.00	97.2
06/07/2019	05:47A	76.17	89	1004	67.00	97.2
06/07/2019	05:51A	76.08	89	1004	67.00	97.1
06/07/2019	05:54A	75.99	89	1004	67.00	97.1
06/07/2019	05:57A	75.96	89	1004	67.00	97.1
06/07/2019	05:59A	75.90	89	1004	67.00	97.1
06/07/2019	06:02A	75.87	90	1004	67.00	96.9
06/07/2019	06:06A	75.87	90	1004	67.00	96.9
06/07/2019	06:09A	75.83	90	1004	67.00	96.9
06/07/2019	06:12A	75.79	90	1005	67.00	96.9
06/07/2019	06:15A	75.76	90	1005	67.00	96.8
06/07/2019	06:18A	75.69	90	1005	67.00	96.7
06/07/2019	06:21A	75.65	90	1005	67.00	96.7
06/07/2019	06:25A	75.61	90	1005	67.00	96.7
06/07/2019	06:28A	75.60	90	1005	67.00	96.7
06/07/2019	06:31A	75.63	90	1005	67.00	96.7
06/07/2019	06:34A	75.63	90	1005	67.00	96.7
06/07/2019	06:36A	75.63	90	1005	67.00	96.7
06/07/2019	06:40A	75.65	90	1005	67.00	96.7
06/07/2019	06:43A	75.67	90	1005	67.00	96.7
06/07/2019	06:46A	75.70	90	1005	67.00	96.7
06/07/2019	06:49A	75.69	89	1005	67.00	96.7
06/07/2019	06:52A	75.72	89	1005	67.00	96.5
06/07/2019	06:55A	75.70	89	1005	67.00	96.5
06/07/2019	07:00A	75.70	89	1005	67.00	96.5
06/07/2019	07:05A	75.72	89	1005	67.00	96.5
06/07/2019	07:11A	75.67	89	1005	67.00	96.5
06/07/2019	07:16A	75.69	89	1005	67.00	96.7
06/07/2019	07:20A	75.76	89	1005	67.00	96.8
06/07/2019	07:26A	75.81	90	1005	67.00	96.7
06/07/2019	07:27A	75.78	90	1005	67.00	96.7
06/07/2019	07:31A	75.74	90	1005	67.00	96.7
06/07/2019	07:36A	75.63	91	1005	67.00	96.5
06/07/2019	07:42A	75.47	91	1005	67.00	96.7
06/07/2019	07:47A	75.38	91	1005	67.00	96.7
06/07/2019	07:52A	75.33	91	1005	67.00	96.8
06/07/2019	07:58A	75.29	90	1005	67.00	96.9
06/07/2019	08:02A	75.31	90	1005	67.00	96.9
06/07/2019	08:07A	75.31	90	1005	67.00	96.9
06/07/2019	08:13A	75.33	90	1005	67.00	97.1
06/07/2019	08:18A	75.31	89	1005	67.00	97.1
06/07/2019	08:22A	75.34	89	1006	67.00	97.1
06/07/2019	08:28A	75.38	89	1006	67.00	97.1
06/07/2019	08:33A	75.47	89	1006	67.00	96.9
06/07/2019	08:38A	75.52	89	1006	67.00	96.9
06/07/2019	08:44A	75.61	89	1006	67.00	97.2
06/07/2019	08:49A	75.76	89	1006	67.00	97.4
06/07/2019	08:53A	75.90	89	1006	67.00	97.5
06/07/2019	08:59A	75.99	89	1006	67.00	97.8
06/07/2019	09:04A	76.10	89	1006	67.00	97.8
06/07/2019	09:09A	76.21	88	1006	67.00	97.9
06/07/2019	09:15A	76.35	88	1006	67.00	98.5
06/07/2019	09:15A	76.48	89	1006	67.00	98.8
06/07/2019	09:20A	76.64	89	1006	67.00	98.8
06/07/2019	09:25A	76.87	89	1006	67.00	100.0
06/07/2019	09:30A	76.84	89	1006	67.00	100.0
06/07/2019	09:35A	76.78	89	1006	67.00	100.0
06/07/2019	09:40A	76.69	89	1006	67.00	100.0
06/07/2019	09:46A	76.77	89	1006	67.00	100.0
06/07/2019	09:51A	76.96	89	1006	67.00	100.0
06/07/2019	09:55A	77.23	88	1006	67.00	100.0
06/07/2019	10:01A	77.56	88	1006	67.00	100.0
06/07/2019	10:06A	77.79	87	1006	67.00	100.0
06/07/2019	10:11A	78.22	87	1006	67.00	100.0
06/07/2019	10:15A	78.58	87	1006	67.00	100.0
06/07/2019	10:22A	78.89	85	1006	67.00	100.0
06/07/2019	10:26A	79.20	85	1006	67.00	100.0
06/07/2019	10:31A	79.56	83	1006	67.00	100.0
06/07/2019	10:37A	79.75	83	1006	67.00	100.0
06/07/2019	10:42A	79.99	82	1006	67.00	100.0
06/07/2019	10:47A	80.29	82	1006	67.00	100.0
06/07/2019	10:52A	80.83	81	1006	67.00	100.0
06/07/2019	10:57A	81.09	80	1006	67.00	100.0
06/07/2019	11:02A	81.10	80	1006	67.00	100.0
06/07/2019	11:08A	81.28	79	1006	67.00	100.0
06/07/2019	11:13A	81.73	79	1006	67.00	100.0
06/07/2019	11:17A	82.00	78	1005	67.00	100.0
06/07/2019	11:23A	82.27	77	1006	67.00	100.0
06/07/2019	11:28A	82.08	78	1006	67.00	100.0
06/07/2019	11:33A	82.15	78	1006	67.00	100.0
06/07/2019	11:39A	82.13	78	1006	67.00	100.0
06/07/2019	11:43A	82.29	78	1006	67.00	100.0
06/07/2019	11:48A	82.58	77	1005	67.00	100.0
06/07/2019	11:54A	83.03	75	1005	67.00	100.0
06/07/2019	11:59A	83.16	75	1005	67.00	100.0
06/07/2019	12:04P	83.41	75	1005	67.00	100.0
06/07/2019	12:08P	83.62	75	1005	67.00	100.0
06/07/2019	12:15P	83.79	74	1005	67.00	100.0
06/07/2019	12:19P	83.52	74	1005	67.00	100.0
06/07/2019	12:24P	83.05	75	1005	67.00	100.0
06/07/2019	12:30P	82.51	76	1005	67.00	100.0
06/07/2019	12:35P	82.09	77	1005	67.00	100.0
06/07/2019	12:39P	82.18	77	1005	67.00	100.0
06/07/2019	12:45P	81.99	77	1005	67.00	100.0
06/07/2019	12:50P	81.70	78	1005	67.00	100.0
06/07/2019	12:55P	81.34	78	1005	67.00	100.0
06/07/2019	01:01P	81.32	79	1005	67.00	100.0
06/07/2019	01:06P	81.19	78	1005	67.00	100.0
06/07/2019	01:10P	81.09	79	1005	67.00	100.0
06/07/2019	01:16P	80.96	79	1005	67.00	100.0
06/07/2019	01:21P	80.87	79	1005	67.00	100.0
06/07/2019	01:26P	80.87	79	1005	67.00	100.0
06/07/2019	01:32P	80.71	79	1005	67.00	100.0
06/07/2019	01:36P	80.40	80	1005	67.00	100.0
06/07/2019	01:41P	80.47	80	1005	67.00	100.0
06/07/2019	01:47P	80.58	79	1005	67.00	100.0
06/07/2019	01:52P	80.65	79	1005	67.00	100.0
06/07/2019	01:56P	80.76	79	1005	67.00	100.0
06/07/2019	02:02P	80.94	79	1005	67.00	100.0
06/07/2019	02:07P	81.32	78	1004	67.00	100.0
06/07/2019	02:12P	81.46	78	1004	67.00	100.0
06/07/2019	02:18P	81.73	78	1004	67.00	100.0
06/07/2019	02:23P	82.02	77	1004	67.00	100.0
06/07/2019	02:27P	82.18	77	1004	67.00	100.0
06/07/2019	02:33P	82.42	77	1004	67.00	100.0
06/07/2019	02:38P	82.63	77	1004	67.00	100.0
06/07/2019	02:43P	82.96	76	1004	67.00	100.0
06/07/2019	02:49P	82.92	76	1004	67.00	100.0
06/07/2019	02:53P	82.85	76	1004	67.00	100.0
06/07/2019	02:58P	82.85	76	1004	67.00	100.0
06/07/2019	03:04P	82.65	76	1004	67.00	100.0
06/07/2019	03:09P	82.42	77	1004	67.00	100.0
06/07/2019	03:13P	82.27	77	1004	67.00	100.0
06/07/2019	03:19P	82.17	77	1004	67.00	100.0
06/07/2019	03:24P	82.17	78	1004	67.00	100.0
06/07/2019	03:29P	82.22	78	1004	67.00	100.0
06/07/2019	03:34P	82.35	77	1004	67.00	100.0
06/07/2019	03:40P	82.40	77	1004	67.00	100.0
06/07/2019	03:45P	82.45	77	1004	67.00	100.0
06/07/2019	03:49P	82.38	77	1004	67.00	100.0
06/07/2019	03:54P	82.35	77	1003	67.00	100.0
06/07/2019	04:00P	82.33	77	1003	67.00	100.0
06/07/2019	04:05P	82.18	77	1003	67.00	100.0
06/07/2019	04:10P	81.90	78	1003	67.00	100.0
06/07/2019	04:16P	81.73	78	1003	67.00	100.0
06/07/2019	04:21P	81.46	78	1003	67.00	100.0
06/07/2019	04:25P	80.96	79	1003	67.00	100.0
06/07/2019	04:31P	81.01	79	1003	67.00	100.0
06/07/2019	04:36P	80.98	80	1003	67.00	100.0
06/07/2019	04:41P	80.83	80	1003	67.00	100.0
06/07/2019	04:47P	80.74	80	1003	67.00	100.0
06/07/2019	04:51P	80.85	80	1003	67.00	100.0
06/07/2019	04:56P	80.82	80	1003	67.00	100.0
06/07/2019	05:01P	80.83	80	1003	67.00	100.0
06/07/2019	05:07P	80.55	80	1003	67.00	100.0
06/07/2019	05:12P	80.31	80	1003	67.00	100.0
06/07/2019	05:17P	80.38	80	1003	67.00	100.0
06/07/2019	05:23P	80.29	80	1003	67.00	100.0
06/07/2019	05:27P	80.17	81	1003	67.00	100.0
06/07/2019	05:32P	80.02	81	1003	67.00	100.0
06/07/2019	05:38P	79.97	81	1003	67.00	100.0
06/07/2019	05:43P	79.84	81	1003	67.00	100.0
06/07/2019	05:46P	79.68	81	1003	67.00	100.0
06/07/2019	05:48P	79.66	81	1003	67.00	100.0
06/07/2019	05:52P	79.66	81	1003	67.00	100.0
06/07/2019	05:55P	79.54	81	1003	67.00	100.0
06/07/2019	05:58P	79.47	81	1003	67.00	100.0
06/07/2019	06:01P	79.50	81	1003	67.00	100.0
06/07/2019	06:05P	79.45	81	1003	67.00	100.0
06/07/2019	06:08P	79.43	81	1003	67.00	100.0
06/07/2019	06:11P	79.41	81	1003	67.00	100.0
06/07/2019	06:13P	79.34	81	1003	67.00	100.0
06/07/2019	06:16P	79.30	81	1003	67.00	100.0
06/07/2019	06:19P	79.18	81	1003	67.00	100.0
06/07/2019	06:23P	79.16	81	1003	67.00	100.0
06/07/2019	06:26P	79.12	81	1003	67.00	100.0
06/07/2019	06:29P	79.05	81	1003	67.00	100.0
06/07/2019	06:32P	79.07	82	1003	67.00	100.0
06/07/2019	06:35P	79.03	82	1003	67.00	100.0
06/07/2019	06:38P	78.93	82	1003	67.00	100.0
06/07/2019	06:42P	78.89	82	1003	67.00	100.0
06/07/2019	06:44P	78.82	82	1003	67.00	100.0
06/07/2019	06:47P	78.80	82	1003	67.00	100.0
06/07/2019	06:50P	78.75	83	1003	67.00	100.0
06/07/2019	06:53P	78.69	83	1003	67.00	98.8
06/07/2019	06:57P	78.60	83	1003	67.00	98.8
06/07/2019	07:04P	78.48	83	1003	67.00	98.8
06/07/2019	07:09P	78.42	84	1004	67.00	98.9
06/07/2019	07:14P	78.40	84	1004	67.00	98.8
06/07/2019	07:19P	78.30	84	1004	67.00	98.8
06/07/2019	07:24P	78.12	84	1004	67.00	98.8
06/07/2019	07:29P	78.04	84	1004	67.00	98.8
06/07/2019	07:35P	77.95	84	1004	67.00	98.8
06/07/2019	07:40P	77.86	85	1004	67.00	98.8
06/07/2019	07:44P	77.72	85	1004	67.00	98.8
06/07/2019	07:50P	77.65	85	1004	67.00	98.8
06/07/2019	07:55P	77.59	86	1004	67.00	98.8
06/07/2019	08:00P	77.54	86	1004	67.00	98.8
06/07/2019	08:06P	77.41	86	1004	67.00	98.6
06/07/2019	08:11P	77.29	86	1004	67.00	98.8
06/07/2019	08:15P	77.22	86	1004	67.00	98.8
06/07/2019	08:21P	77.11	86	1004	67.00	98.8
06/07/2019	08:26P	77.04	86	1004	67.00	98.8
06/07/2019	08:31P	76.98	86	1004	67.00	98.8
06/07/2019	08:37P	76.95	86	1004	67.00	98.8
06/07/2019	08:41P	76.86	86	1004	67.00	98.6
06/07/2019	08:46P	76.75	87	1004	67.00	98.8
06/07/2019	08:52P	76.69	87	1004	67.00	98.8
06/07/2019	08:57P	76.57	87	1004	67.00	98.6
06/07/2019	09:01P	76.51	87	1004	67.00	98.6
06/07/2019	09:07P	76.46	87	1004	67.00	98.8
06/07/2019	09:12P	76.41	87	1004	67.00	98.6
06/07/2019	09:17P	76.37	87	1004	67.00	98.6
06/07/2019	09:23P	76.32	87	1004	67.00	98.5
06/07/2019	09:28P	76.30	87	1004	67.00	98.5
06/07/2019	09:32P	76.23	87	1004	67.00	98.5
06/07/2019	09:38P	76.12	87	1004	67.00	98.5
06/07/2019	09:43P	76.03	87	1004	67.00	98.5
06/07/2019	09:48P	75.94	88	1004	67.00	98.5
06/07/2019	09:53P	75.94	88	1004	67.00	98.5
06/07/2019	09:59P	75.94	87	1004	67.00	98.5
06/07/2019	10:03P	75.85	88	1004	67.00	98.5
06/07/2019	10:08P	75.83	88	1004	67.00	98.5
06/07/2019	10:14P	75.85	87	1004	67.00	98.5
06/07/2019	10:19P	75.76	88	1004	67.00	98.5
06/07/2019	10:24P	75.65	88	1004	67.00	98.3
06/07/2019	10:30P	75.60	88	1004	67.00	98.5
06/07/2019	10:34P	75.61	88	1004	67.00	98.5
06/07/2019	10:39P	75.58	88	1004	67.00	98.5
06/07/2019	10:45P	75.54	88	1004	67.00	98.5
06/07/2019	10:50P	75.52	89	1004	67.00	98.5
06/07/2019	10:55P	75.45	89	1004	67.00	98.5
06/07/2019	11:01P	75.38	89	1004	67.00	98.3
06/07/2019	11:05P	75.29	89	1004	67.00	98.3
06/07/2019	11:10P	75.25	89	1005	67.00	98.3
06/07/2019	11:16P	75.20	89	1005	67.00	98.1
06/07/2019	11:21P	75.16	89	1005	67.00	98.1
06/07/2019	11:26P	75.13	89	1005	67.00	98.1
06/07/2019	11:31P	75.13	89	1005	67.00	98.1
06/07/2019	11:36P	75.09	89	1005	67.00	98.1
06/07/2019	11:41P	75.07	89	1005	67.00	98.1
06/07/2019	11:47P	75.11	89	1005	67.00	98.1
06/07/2019	11:52P	75.15	89	1005	67.00	98.1
06/07/2019	11:56P	75.16	88	1005	67.00	98.1
06/08/2019	12:02A	75.20	88	1005	67.00	98.1
06/08/2019	12:07A	75.22	88	1005	67.00	97.9
06/08/2019	12:12A	75.25	88	1005	67.00	98.1
06/08/2019	12:18A	75.22	88	1005	67.00	98.1
06/08/2019	12:22A	75.16	88	1005	67.00	98.1
06/08/2019	12:27A	75.13	88	1005	67.00	98.1
06/08/2019	12:33A	75.15	88	1005	67.00	98.1
06/08/2019	12:38A	75.24	88	1005	67.00	97.9
06/08/2019	12:43A	75.22	88	1005	67.00	98.1
06/08/2019	12:49A	75.20	88	1005	67.00	98.1
06/08/2019	12:53A	75.18	88	1005	67.00	98.1
06/08/2019	12:58A	75.18	88	1005	67.00	98.1
06/08/2019	01:04A	75.20	88	1005	67.00	98.1
06/08/2019	01:09A	75.20	88	1005	67.00	98.1
06/08/2019	01:14A	75.16	88	1005	67.00	97.9
06/08/2019	01:19A	75.13	88	1005	67.00	97.9
06/08/2019	01:24A	75.09	88	1004	67.00	97.9
06/08/2019	01:29A	75.09	88	1004	67.00	97.8
06/08/2019	01:35A	75.09	88	1004	67.00	97.8
06/08/2019	01:40A	75.11	88	1004	67.00	97.8
06/08/2019	01:45A	75.15	88	1004	67.00	97.8
06/08/2019	01:50A	75.15	88	1004	67.00	97.8
06/08/2019	01:55A	75.13	88	1004	67.00	97.8
06/08/2019	02:00A	75.11	88	1004	67.00	97.8
06/08/2019	02:06A	75.09	88	1004	67.00	97.8
06/08/2019	02:11A	75.04	88	1004	67.00	97.8
06/08/2019	02:15A	75.00	88	1004	67.00	97.8
06/08/2019	02:21A	74.98	88	1004	67.00	97.8
06/08/2019	02:26A	74.98	88	1004	67.00	97.8
06/08/2019	02:31A	74.98	88	1004	67.00	97.8
06/08/2019	02:37A	74.98	88	1004	67.00	97.8
06/08/2019	02:41A	75.00	88	1004	67.00	97.8
06/08/2019	02:46A	75.00	88	1004	67.00	97.8
06/08/2019	02:52A	74.98	89	1004	67.00	97.8
06/08/2019	02:57A	74.97	89	1004	67.00	97.6
06/08/2019	03:02A	74.97	89	1004	67.00	97.8
06/08/2019	03:08A	74.95	89	1004	67.00	97.8
06/08/2019	03:12A	74.93	89	1004	67.00	97.8
06/08/2019	03:17A	74.91	89	1004	67.00	97.8
06/08/2019	03:23A	74.89	89	1004	67.00	97.8
06/08/2019	03:28A	74.88	89	1004	67.00	97.8
06/08/2019	03:32A	74.89	89	1004	67.00	97.6
06/08/2019	03:38A	74.91	89	1004	67.00	97.6
06/08/2019	03:43A	74.93	89	1004	67.00	97.6
06/08/2019	03:48A	74.91	89	1004	67.00	97.5
06/08/2019	03:54A	74.89	89	1004	67.00	97.4
06/08/2019	03:59A	74.91	89	1004	67.00	97.4
06/08/2019	04:03A	74.93	89	1004	67.00	97.4
06/08/2019	04:09A	74.95	89	1004	67.00	97.4
06/08/2019	04:14A	74.95	89	1004	67.00	97.4
06/08/2019	04:19A	74.93	89	1004	67.00	97.4
06/08/2019	04:25A	74.89	89	1004	67.00	97.4
06/08/2019	04:29A	74.89	89	1004	67.00	97.4
06/08/2019	04:34A	74.91	89	1004	67.00	97.4
06/08/2019	04:40A	74.93	89	1004	67.00	97.4
06/08/2019	04:45A	74.97	89	1004	67.00	97.4
06/08/2019	04:50A	74.97	89	1004	67.00	97.4
06/08/2019	04:56A	74.97	89	1004	67.00	97.4
06/08/2019	05:00A	74.98	89	1004	67.00	97.4
06/08/2019	05:05A	75.00	89	1004	67.00	97.4
06/08/2019	05:11A	75.00	89	1004	67.00	97.2
06/08/2019	05:16A	75.00	89	1004	67.00	97.4
06/08/2019	05:20A	75.02	89	1004	67.00	97.4
06/08/2019	05:26A	75.00	89	1004	67.00	97.4
06/08/2019	05:31A	75.02	89	1004	67.00	97.4
06/08/2019	05:36A	75.04	89	1004	67.00	97.4
06/08/2019	05:42A	75.02	89	1004	67.00	97.4
06/08/2019	05:46A	75.00	89	1004	67.00	97.2
06/08/2019	05:49A	74.97	89	1004	67.00	97.1
06/08/2019	05:53A	74.97	89	1004	67.00	97.1
06/08/2019	05:56A	74.97	89	1004	67.00	97.1
06/08/2019	05:59A	74.98	89	1004	67.00	97.1
06/08/2019	06:02A	75.02	89	1004	67.00	97.1
06/08/2019	06:05A	75.06	89	1004	67.00	97.1
06/08/2019	06:08A	75.06	89	1004	67.00	96.9
06/08/2019	06:12A	75.09	89	1004	67.00	96.9
06/08/2019	06:15A	75.13	89	1004	67.00	96.9
06/08/2019	06:18A	75.16	89	1004	67.00	96.9
06/08/2019	06:20A	75.18	89	1004	67.00	96.8
06/08/2019	06:23A	75.20	89	1004	67.00	96.7
06/08/2019	06:27A	75.18	89	1004	67.00	96.7
06/08/2019	06:30A	75.18	89	1004	67.00	96.7
06/08/2019	06:33A	75.18	89	1004	67.00	96.7
06/08/2019	06:36A	75.20	89	1004	67.00	96.7
06/08/2019	06:39A	75.20	88	1004	67.00	96.7
06/08/2019	06:43A	75.22	88	1004	67.00	96.7
06/08/2019	06:45A	75.22	88	1004	67.00	96.8
06/08/2019	06:48A	75.24	88	1004	67.00	96.9
06/08/2019	06:51A	75.27	88	1004	67.00	96.9
06/08/2019	06:54A	75.33	88	1004	67.00	96.9
06/08/2019	06:59A	75.36	88	1004	67.00	96.9
06/08/2019	07:05A	75.38	88	1004	67.00	96.9
06/08/2019	07:10A	75.40	88	1004	67.00	96.9
06/08/2019	07:14A	75.38	88	1004	67.00	96.9
06/08/2019	07:20A	75.40	88	1004	67.00	97.1
06/08/2019	07:25A	75.45	88	1004	67.00	97.1
06/08/2019	07:30A	75.58	88	1004	67.00	97.2
06/08/2019	07:36A	75.72	87	1004	67.00	97.2
06/08/2019	07:41A	75.85	87	1004	67.00	97.1
06/08/2019	07:45A	75.94	87	1004	67.00	97.1
06/08/2019	07:50A	76.01	87	1004	67.00	97.1
06/08/2019	07:56A	76.05	87	1005	67.00	97.2
06/08/2019	08:01A	76.08	87	1005	67.00	97.4
06/08/2019	08:06A	76.17	86	1005	67.00	97.4
06/08/2019	08:12A	76.28	86	1005	67.00	97.6
06/08/2019	08:17A	76.39	86	1005	67.00	97.6
06/08/2019	08:21A	76.50	86	1005	67.00	97.8
06/08/2019	08:27A	76.62	86	1005	67.00	97.8
06/08/2019	08:32A	76.66	86	1005	67.00	97.9
06/08/2019	08:37A	76.69	86	1005	67.00	98.2
06/08/2019	08:42A	76.66	86	1005	67.00	98.8
06/08/2019	08:47A	76.71	86	1005	67.00	100.0
06/08/2019	08:52A	76.87	86	1005	67.00	100.0
06/08/2019	08:58A	77.05	85	1005	67.00	100.0
06/08/2019	09:03A	77.14	85	1005	67.00	100.0
06/08/2019	09:07A	77.27	85	1005	67.00	100.0
06/08/2019	09:13A	77.49	84	1005	67.00	100.0
06/08/2019	09:18A	77.61	84	1005	67.00	100.0
06/08/2019	09:23A	77.72	84	1005	67.00	100.0
06/08/2019	09:29A	77.83	84	1005	67.00	100.0
06/08/2019	09:33A	78.01	84	1005	67.00	100.0
06/08/2019	09:38A	78.12	84	1005	67.00	100.0
06/08/2019	09:44A	78.35	83	1005	67.00	100.0
06/08/2019	09:49A	78.60	83	1005	67.00	100.0
06/08/2019	09:54A	78.87	83	1005	67.00	100.0
06/08/2019	09:59A	79.14	82	1005	67.00	100.0
06/08/2019	10:04A	79.23	82	1005	67.00	100.0
06/08/2019	10:09A	79.47	82	1005	67.00	100.0
06/08/2019	10:15A	79.79	82	1005	67.00	100.0
06/08/2019	10:20A	79.95	81	1005	67.00	100.0
06/08/2019	10:24A	80.28	80	1005	67.00	100.0
06/08/2019	10:30A	80.62	79	1005	67.00	100.0
06/08/2019	10:35A	80.98	79	1005	67.00	100.0
06/08/2019	10:40A	81.00	79	1005	67.00	100.0
06/08/2019	10:46A	80.98	78	1005	67.00	100.0
06/08/2019	10:50A	81.36	79	1005	67.00	100.0
06/08/2019	10:55A	81.79	78	1005	67.00	100.0
06/08/2019	11:01A	81.99	77	1005	67.00	100.0
06/08/2019	11:06A	82.18	77	1005	67.00	100.0
06/08/2019	11:11A	82.33	77	1004	67.00	100.0
06/08/2019	11:16A	82.56	75	1005	67.00	100.0
06/08/2019	11:21A	83.01	75	1005	67.00	100.0
06/08/2019	11:26A	83.57	74	1005	67.00	100.0
06/08/2019	11:32A	84.02	74	1005	67.00	100.0
06/08/2019	11:37A	83.89	74	1005	67.00	100.0
06/08/2019	11:41A	83.39	74	1005	67.00	100.0
06/08/2019	11:46A	83.55	75	1005	67.00	100.0
06/08/2019	11:52A	83.73	74	1005	67.00	100.0
06/08/2019	11:57A	83.71	75	1005	67.00	100.0
06/08/2019	12:02P	84.04	74	1005	67.00	100.0
06/08/2019	12:08P	84.29	74	1005	67.00	100.0
06/08/2019	12:13P	84.51	74	1004	67.00	100.0
06/08/2019	12:17P	84.56	73	1004	67.00	100.0
06/08/2019	12:22P	84.33	74	1004	67.00	100.0
06/08/2019	12:28P	84.18	74	1004	67.00	100.0
06/08/2019	12:33P	84.22	73	1004	67.00	100.0
06/08/2019	12:38P	84.56	73	1004	67.00	100.0
06/08/2019	12:44P	84.90	73	1004	67.00	100.0
06/08/2019	12:49P	84.87	72	1004	67.00	100.0
06/08/2019	12:53P	84.67	73	1004	67.00	100.0
06/08/2019	12:58P	84.90	72	1004	67.00	100.0
06/08/2019	01:04P	84.92	72	1004	67.00	100.0
06/08/2019	01:09P	85.03	73	1004	67.00	100.0
06/08/2019	01:14P	84.92	72	1004	67.00	100.0
06/08/2019	01:20P	84.94	72	1004	67.00	100.0
06/08/2019	01:24P	85.17	71	1004	67.00	100.0
06/08/2019	01:29P	85.06	71	1004	67.00	100.0
06/08/2019	01:34P	85.35	71	1004	67.00	100.0
06/08/2019	01:40P	85.68	71	1004	67.00	100.0
06/08/2019	01:45P	85.91	70	1004	67.00	100.0
06/08/2019	01:50P	85.91	70	1003	67.00	100.0
06/08/2019	01:56P	85.66	70	1003	67.00	100.0
06/08/2019	02:00P	85.78	69	1003	67.00	100.0
06/08/2019	02:05P	85.66	69	1003	67.00	100.0
06/08/2019	02:11P	85.68	69	1003	67.00	100.0
06/08/2019	02:16P	85.59	69	1003	67.00	100.0
06/08/2019	02:20P	85.42	69	1003	67.00	100.0
06/08/2019	02:26P	85.37	70	1003	67.00	100.0
06/08/2019	02:31P	85.30	70	1003	67.00	100.0
06/08/2019	02:36P	85.15	70	1003	67.00	100.0
06/08/2019	02:42P	85.15	71	1003	67.00	100.0
06/08/2019	02:47P	85.26	71	1003	67.00	100.0
06/08/2019	02:51P	85.15	70	1003	67.00	100.0
06/08/2019	02:57P	85.28	70	1002	67.00	100.0
06/08/2019	03:02P	85.55	69	1002	67.00	100.0
06/08/2019	03:07P	85.87	69	1002	67.00	100.0
06/08/2019	03:13P	86.23	68	1002	67.00	100.0
06/08/2019	03:17P	86.41	68	1002	67.00	100.0
06/08/2019	03:22P	86.49	68	1002	67.00	100.0
06/08/2019	03:27P	86.72	68	1002	67.00	100.0
06/08/2019	03:33P	86.74	68	1002	67.00	100.0
06/08/2019	03:38P	86.85	68	1002	67.00	100.0
06/08/2019	03:42P	86.72	68	1002	67.00	100.0
06/08/2019	03:49P	86.74	68	1002	67.00	100.0
06/08/2019	03:53P	86.65	68	1002	67.00	100.0
06/08/2019	03:58P	86.76	67	1001	67.00	100.0
06/08/2019	04:03P	86.54	67	1001	67.00	100.0
06/08/2019	04:09P	86.40	68	1001	67.00	100.0
06/08/2019	04:14P	86.41	68	1001	67.00	100.0
06/08/2019	04:18P	86.54	68	1001	67.00	100.0
06/08/2019	04:24P	86.74	68	1001	67.00	100.0
06/08/2019	04:29P	86.76	68	1001	67.00	100.0
06/08/2019	04:34P	86.74	68	1001	67.00	100.0
06/08/2019	04:40P	86.56	68	1001	67.00	100.0
06/08/2019	04:45P	86.16	69	1001	67.00	100.0
06/08/2019	04:49P	85.71	70	1002	67.00	100.0
06/08/2019	04:54P	85.32	70	1002	67.00	100.0
06/08/2019	05:00P	85.15	70	1002	67.00	100.0
06/08/2019	05:05P	84.69	71	1002	67.00	100.0
06/08/2019	05:10P	84.51	71	1002	67.00	100.0
06/08/2019	05:16P	84.49	71	1002	67.00	100.0
06/08/2019	05:21P	84.38	72	1002	67.00	100.0
06/08/2019	05:25P	84.22	72	1002	67.00	100.0
06/08/2019	05:30P	83.95	72	1002	67.00	100.0
06/08/2019	05:36P	83.75	73	1002	67.00	100.0
06/08/2019	05:41P	83.57	73	1002	67.00	100.0
06/08/2019	05:46P	83.35	73	1002	67.00	100.0
06/08/2019	05:50P	83.14	73	1002	67.00	100.0
06/08/2019	05:53P	83.08	73	1002	67.00	100.0
06/08/2019	05:56P	83.03	73	1002	67.00	100.0
06/08/2019	05:58P	82.99	73	1002	67.00	100.0
06/08/2019	06:01P	82.89	74	1002	67.00	100.0
06/08/2019	06:05P	82.89	74	1002	67.00	100.0
06/08/2019	06:08P	82.80	74	1002	67.00	100.0
06/08/2019	06:11P	82.72	74	1002	67.00	100.0
06/08/2019	06:14P	82.60	74	1002	67.00	100.0
06/08/2019	06:17P	82.54	75	1002	67.00	100.0
06/08/2019	06:20P	82.49	75	1002	67.00	100.0
06/08/2019	06:24P	82.42	75	1002	67.00	100.0
06/08/2019	06:26P	82.33	76	1002	67.00	100.0
06/08/2019	06:29P	82.27	76	1002	67.00	100.0
06/08/2019	06:32P	82.20	76	1002	67.00	100.0
06/08/2019	06:35P	82.17	76	1002	67.00	100.0
06/08/2019	06:39P	82.15	76	1002	67.00	100.0
06/08/2019	06:42P	82.09	76	1002	67.00	98.9
06/08/2019	06:45P	82.00	76	1002	67.00	98.9
06/08/2019	06:47P	81.93	76	1002	67.00	98.8
06/08/2019	06:50P	81.90	76	1002	67.00	98.8
06/08/2019	06:54P	81.82	76	1002	67.00	98.8
06/08/2019	06:57P	81.82	76	1002	67.00	98.6
06/08/2019	07:04P	81.79	76	1002	67.00	98.8
06/08/2019	07:09P	81.75	76	1003	67.00	98.8
06/08/2019	07:14P	81.70	76	1003	67.00	98.8
06/08/2019	07:20P	81.66	76	1003	67.00	98.8
06/08/2019	07:24P	81.63	76	1003	67.00	98.6
06/08/2019	07:29P	81.59	76	1003	67.00	98.8
06/08/2019	07:35P	81.54	76	1003	67.00	98.8
06/08/2019	07:40P	81.46	76	1003	67.00	98.8
06/08/2019	07:45P	81.39	77	1003	67.00	98.8
06/08/2019	07:51P	81.28	77	1003	67.00	98.8
06/08/2019	07:55P	81.23	77	1003	67.00	98.8
06/08/2019	08:00P	81.19	76	1003	67.00	98.8
06/08/2019	08:06P	81.19	76	1003	67.00	98.8
06/08/2019	08:11P	81.18	75	1003	67.00	98.8
06/08/2019	08:16P	81.16	76	1003	67.00	98.8
06/08/2019	08:21P	81.10	75	1003	67.00	98.8
06/08/2019	08:26P	81.07	75	1003	67.00	98.8
06/08/2019	08:31P	81.05	75	1003	67.00	98.8
06/08/2019	08:37P	81.00	75	1003	67.00	98.8
06/08/2019	08:42P	80.92	76	1003	67.00	98.6
06/08/2019	08:46P	80.82	75	1003	67.00	98.6
06/08/2019	08:52P	80.69	76	1003	67.00	98.6
06/08/2019	08:57P	80.58	76	1003	67.00	98.5
06/08/2019	09:02P	80.49	76	1003	67.00	98.5
06/08/2019	09:08P	80.38	76	1003	67.00	98.3
06/08/2019	09:13P	80.26	77	1003	67.00	98.5
06/08/2019	09:17P	80.11	77	1003	67.00	98.5
06/08/2019	09:23P	79.97	78	1003	67.00	98.5
06/08/2019	09:28P	79.81	79	1003	67.00	98.5
06/08/2019	09:33P	79.66	79	1003	67.00	98.5
06/08/2019	09:39P	79.57	79	1003	67.00	98.5
06/08/2019	09:43P	79.48	79	1004	67.00	98.5
06/08/2019	09:48P	79.43	79	1004	67.00	98.5
06/08/2019	09:54P	79.36	79	1004	67.00	98.5
06/08/2019	09:59P	79.29	79	1004	67.00	98.5
06/08/2019	10:04P	79.20	80	1004	67.00	98.5
06/08/2019	10:10P	79.07	80	1004	67.00	98.5
06/08/2019	10:14P	78.96	80	1004	67.00	98.5
06/08/2019	10:19P	78.85	81	1004	67.00	98.5
06/08/2019	10:25P	78.80	81	1004	67.00	98.5
06/08/2019	10:30P	78.73	81	1004	67.00	98.5
06/08/2019	10:34P	78.60	82	1004	67.00	98.3
06/08/2019	10:40P	78.46	83	1004	67.00	98.3
06/08/2019	10:45P	78.39	83	1004	67.00	98.3
06/08/2019	10:50P	78.26	83	1004	67.00	98.2
06/08/2019	10:56P	78.10	83	1004	67.00	98.1
06/08/2019	11:01P	77.90	83	1004	67.00	98.1
06/08/2019	11:05P	77.65	84	1004	67.00	98.1
06/08/2019	11:11P	77.49	84	1004	67.00	98.1
06/08/2019	11:16P	77.32	84	1004	67.00	98.1
06/08/2019	11:21P	77.13	84	1004	67.00	98.1
06/08/2019	11:27P	76.95	85	1004	67.00	97.9
06/08/2019	11:31P	76.82	85	1004	67.00	98.1
06/08/2019	11:36P	76.68	85	1004	67.00	98.1
06/08/2019	11:42P	76.53	85	1004	67.00	98.1
06/08/2019	11:47P	76.46	86	1004	67.00	98.1
06/08/2019	11:52P	76.37	86	1004	67.00	98.1
06/08/2019	11:58P	76.26	86	1004	67.00	98.1
06/09/2019	12:02A	76.17	86	1005	67.00	98.1
06/09/2019	12:07A	76.05	86	1005	67.00	98.1
06/09/2019	12:13A	75.94	86	1005	67.00	98.1
06/09/2019	12:18A	75.76	86	1005	67.00	98.1
06/09/2019	12:22A	75.61	87	1005	67.00	98.1
06/09/2019	12:28A	75.52	87	1005	67.00	98.1
06/09/2019	12:33A	75.42	87	1005	67.00	97.9
06/09/2019	12:38A	75.40	87	1005	67.00	97.9
06/09/2019	12:44A	75.34	87	1005	67.00	97.9
06/09/2019	12:48A	75.27	87	1005	67.00	97.9
06/09/2019	12:53A	75.24	87	1005	67.00	97.8
06/09/2019	12:59A	75.18	87	1005	67.00	97.8
06/09/2019	01:04A	75.15	87	1005	67.00	97.8
06/09/2019	01:09A	75.07	87	1005	67.00	97.8
06/09/2019	01:15A	75.02	88	1005	67.00	97.8
06/09/2019	01:19A	74.95	88	1005	67.00	97.8
06/09/2019	01:24A	74.89	88	1005	67.00	97.8
06/09/2019	01:30A	74.82	88	1005	67.00	97.8
06/09/2019	01:35A	74.77	88	1005	67.00	97.8
06/09/2019	01:40A	74.70	88	1005	67.00	97.8
06/09/2019	01:46A	74.66	88	1005	67.00	97.8
06/09/2019	01:50A	74.61	88	1005	67.00	97.8
06/09/2019	01:55A	74.59	88	1005	67.00	97.8
06/09/2019	02:01A	74.59	88	1005	67.00	97.8
06/09/2019	02:06A	74.53	88	1005	67.00	97.8
06/09/2019	02:11A	74.48	88	1005	67.00	97.8
06/09/2019	02:16A	74.44	88	1005	67.00	97.6
06/09/2019	02:21A	74.41	88	1005	67.00	97.8
06/09/2019	02:26A	74.37	88	1005	67.00	97.8
06/09/2019	02:32A	74.32	89	1005	67.00	97.8
06/09/2019	02:37A	74.25	89	1005	67.00	97.8
06/09/2019	02:41A	74.21	89	1005	67.00	97.8
06/09/2019	02:47A	74.21	89	1005	67.00	97.6
06/09/2019	02:52A	74.23	89	1005	67.00	97.6
06/09/2019	02:57A	74.25	89	1004	67.00	97.6
06/09/2019	03:03A	74.21	89	1004	67.00	97.5
06/09/2019	03:08A	74.19	89	1004	67.00	97.4
06/09/2019	03:12A	74.17	90	1004	67.00	97.4
06/09/2019	03:18A	74.14	90	1004	67.00	97.4
06/09/2019	03:23A	74.14	90	1004	67.00	97.2
06/09/2019	03:28A	74.07	90	1004	67.00	97.4
06/09/2019	03:34A	74.03	90	1004	67.00	97.4
06/09/2019	03:38A	73.99	90	1004	67.00	97.4
06/09/2019	03:43A	74.01	90	1004	67.00	97.4
06/09/2019	03:49A	74.01	90	1004	67.00	97.4
06/09/2019	03:54A	74.08	90	1004	67.00	97.2
06/09/2019	03:59A	74.14	90	1004	67.00	97.4
06/09/2019	04:04A	74.16	90	1004	67.00	97.4
06/09/2019	04:09A	74.19	90	1004	67.00	97.4
06/09/2019	04:14A	74.17	90	1004	67.00	97.4
06/09/2019	04:20A	74.17	90	1004	67.00	97.4
06/09/2019	04:25A	74.21	90	1004	67.00	97.4
06/09/2019	04:29A	74.28	90	1004	67.00	97.2
06/09/2019	04:35A	74.39	90	1004	67.00	97.4
06/09/2019	04:40A	74.46	89	1004	67.00	97.4
06/09/2019	04:45A	74.53	89	1004	67.00	97.4
06/09/2019	04:51A	74.62	88	1004	67.00	97.4
06/09/2019	04:56A	74.70	88	1005	67.00	97.4
06/09/2019	05:00A	74.73	88	1005	67.00	97.2
06/09/2019	05:06A	74.79	87	1005	67.00	97.2
06/09/2019	05:11A	74.84	87	1005	67.00	97.2
06/09/2019	05:16A	74.86	87	1005	67.00	97.1
06/09/2019	05:22A	74.89	86	1005	67.00	97.1
06/09/2019	05:26A	75.02	86	1005	67.00	97.1
06/09/2019	05:31A	75.07	86	1005	67.00	97.1
06/09/2019	05:37A	75.11	86	1005	67.00	97.1
06/09/2019	05:42A	75.15	85	1005	67.00	96.9
06/09/2019	05:46A	75.22	85	1005	67.00	97.1
06/09/2019	05:51A	75.31	85	1005	67.00	97.1
06/09/2019	05:54A	75.36	85	1005	67.00	97.1
06/09/2019	05:56A	75.42	84	1005	67.00	97.1
06/09/2019	05:59A	75.47	84	1005	67.00	96.9
06/09/2019	06:02A	75.54	84	1005	67.00	96.9
06/09/2019	06:05A	75.58	84	1005	67.00	96.9
06/09/2019	06:09A	75.58	84	1005	67.00	96.8
06/09/2019	06:12A	75.61	84	1005	67.00	96.7
06/09/2019	06:15A	75.61	84	1005	67.00	96.7
06/09/2019	06:18A	75.63	84	1005	67.00	96.7
06/09/2019	06:21A	75.70	83	1005	67.00	96.7
06/09/2019	06:23A	75.76	83	1005	67.00	96.5
06/09/2019	06:27A	75.74	83	1005	67.00	96.5
06/09/2019	06:30A	75.74	83	1005	67.00	96.7
06/09/2019	06:33A	75.74	83	1005	67.00	96.7
06/09/2019	06:36A	75.74	83	1005	67.00	96.7
06/09/2019	06:40A	75.76	84	1005	67.00	96.8
06/09/2019	06:43A	75.81	84	1005	67.00	96.8
06/09/2019	06:46A	75.83	83	1005	67.00	96.8
06/09/2019	06:48A	75.92	83	1005	67.00	96.8
06/09/2019	06:51A	75.96	83	1005	67.00	96.9
06/09/2019	06:55A	75.99	83	1005	67.00	97.1
06/09/2019	07:00A	76.01	82	1005	67.00	97.2
06/09/2019	07:05A	76.05	83	1005	67.00	97.4
06/09/2019	07:09A	76.08	83	1005	67.00	97.6
06/09/2019	07:16A	76.06	83	1005	67.00	97.8
06/09/2019	07:20A	76.10	84	1005	67.00	97.9
06/09/2019	07:25A	76.15	84	1005	67.00	98.2
06/09/2019	07:31A	76.17	85	1005	67.00	98.3
06/09/2019	07:36A	76.28	86	1005	67.00	98.5
06/09/2019	07:41A	76.21	86	1005	67.00	98.8
06/09/2019	07:46A	76.26	85	1005	67.00	100.0
06/09/2019	07:51A	76.35	84	1005	67.00	100.0
06/09/2019	07:56A	76.53	84	1005	67.00	100.0
06/09/2019	08:02A	76.80	83	1005	67.00	100.0
06/09/2019	08:07A	76.93	83	1005	67.00	100.0
06/09/2019	08:11A	77.14	82	1005	67.00	100.0
06/09/2019	08:16A	77.31	82	1005	67.00	100.0
06/09/2019	08:22A	77.61	81	1005	67.00	100.0
06/09/2019	08:27A	78.03	81	1005	67.00	100.0
06/09/2019	08:32A	78.48	80	1005	67.00	100.0
06/09/2019	08:38A	79.12	80	1005	67.00	100.0
06/09/2019	08:43A	80.60	77	1004	67.00	100.0
06/09/2019	08:47A	81.82	74	1004	67.00	100.0
06/09/2019	08:53A	82.89	72	1004	67.00	100.0
06/09/2019	08:58A	83.93	71	1004	67.00	100.0
06/09/2019	09:03A	84.88	69	1004	67.00	100.0
06/09/2019	09:09A	85.39	67	1004	67.00	100.0
06/09/2019	09:13A	86.32	67	1004	67.00	100.0
06/09/2019	09:18A	87.06	65	1004	67.00	100.0
06/09/2019	09:24A	88.11	64	1004	67.00	100.0
06/09/2019	09:29A	88.84	63	1005	67.00	100.0
06/09/2019	09:33A	89.92	62	1005	67.00	100.0
06/09/2019	09:39A	91.27	60	1005	67.00	100.0
06/09/2019	09:44A	91.90	58	1005	67.00	100.0
06/09/2019	09:49A	91.92	58	1005	67.00	100.0
06/09/2019	09:55A	92.55	58	1005	67.00	100.0
06/09/2019	10:00A	92.66	58	1005	67.00	100.0
06/09/2019	10:04A	93.92	56	1005	67.00	100.0
06/09/2019	10:09A	93.33	56	1005	67.00	100.0
06/09/2019	10:15A	90.52	59	1006	67.00	100.0
06/09/2019	10:20A	90.01	61	1006	67.00	100.0
06/09/2019	10:25A	89.55	61	1007	67.00	100.0
06/09/2019	10:31A	89.65	61	1007	67.00	100.0
06/09/2019	10:35A	90.05	60	1006	67.00	100.0
06/09/2019	10:40A	88.83	62	1006	67.00	100.0
06/09/2019	10:45A	89.37	62	1006	67.00	100.0
06/09/2019	10:51A	89.80	61	1006	67.00	100.0
06/09/2019	10:56A	90.81	60	1006	67.00	100.0
06/09/2019	11:01A	91.31	59	1006	67.00	100.0
06/09/2019	11:07A	91.35	60	1006	67.00	100.0
06/09/2019	11:11A	92.46	58	1006	67.00	100.0
06/09/2019	11:16A	92.01	58	1006	67.00	100.0
06/09/2019	11:22A	91.98	58	1006	67.00	100.0
06/09/2019	11:26A	92.35	58	1006	67.00	100.0
06/09/2019	11:31A	91.94	59	1006	67.00	100.0
06/09/2019	11:37A	91.17	59	1006	67.00	100.0
06/09/2019	11:42A	91.31	60	1006	67.00	100.0
06/09/2019	11:47A	91.33	59	1006	67.00	100.0
06/09/2019	11:53A	91.04	60	1006	67.00	100.0
06/09/2019	11:58A	90.99	61	1006	67.00	100.0
06/09/2019	12:02P	90.93	60	1006	67.00	100.0
06/09/2019	12:08P	91.69	59	1005	67.00	100.0
06/09/2019	12:13P	92.12	58	1005	67.00	100.0
06/09/2019	12:18P	92.10	59	1005	67.00	100.0
06/09/2019	12:24P	91.90	60	1005	67.00	100.0
06/09/2019	12:28P	91.02	60	1005	67.00	100.0
06/09/2019	12:33P	90.07	61	1005	67.00	100.0
06/09/2019	12:39P	90.21	61	1005	67.00	100.0
06/09/2019	12:43P	90.09	62	1005	67.00	100.0
06/09/2019	12:48P	90.00	61	1005	67.00	100.0
06/09/2019	12:54P	90.63	61	1005	67.00	100.0
06/09/2019	12:59P	91.04	60	1005	67.00	100.0
06/09/2019	01:04P	90.93	60	1005	67.00	100.0
06/09/2019	01:09P	91.09	60	1005	67.00	100.0
06/09/2019	01:15P	90.99	61	1005	67.00	100.0
06/09/2019	01:19P	91.06	60	1005	67.00	100.0
06/09/2019	01:24P	90.66	61	1004	67.00	100.0
06/09/2019	01:30P	90.48	62	1004	67.00	100.0
06/09/2019	01:35P	90.77	61	1004	67.00	100.0
06/09/2019	01:40P	90.77	61	1004	67.00	100.0
06/09/2019	01:46P	90.91	61	1004	67.00	100.0
06/09/2019	01:50P	90.55	63	1004	67.00	100.0
06/09/2019	01:55P	90.39	63	1004	67.00	100.0
06/09/2019	02:00P	89.98	63	1004	67.00	100.0
06/09/2019	02:06P	90.14	63	1004	67.00	100.0
06/09/2019	02:11P	89.96	63	1004	67.00	100.0
06/09/2019	02:16P	90.37	63	1004	67.00	100.0
06/09/2019	02:22P	90.37	63	1004	67.00	100.0
06/09/2019	02:26P	90.18	63	1004	67.00	100.0
06/09/2019	02:31P	90.23	63	1003	67.00	100.0
06/09/2019	02:37P	90.36	63	1003	67.00	100.0
06/09/2019	02:42P	90.27	63	1003	67.00	100.0
06/09/2019	02:46P	90.28	63	1003	67.00	100.0
06/09/2019	02:52P	90.14	63	1003	67.00	100.0
06/09/2019	02:57P	90.12	64	1003	67.00	100.0
06/09/2019	03:02P	90.05	64	1003	67.00	100.0
06/09/2019	03:08P	90.05	64	1003	67.00	100.0
06/09/2019	03:12P	89.87	64	1003	67.00	100.0
06/09/2019	03:17P	89.73	64	1003	67.00	100.0
06/09/2019	03:23P	89.65	64	1003	67.00	100.0
06/09/2019	03:28P	89.51	65	1003	67.00	100.0
06/09/2019	03:33P	89.38	65	1003	67.00	100.0
06/09/2019	03:38P	89.20	65	1003	67.00	100.0
06/09/2019	03:43P	88.86	65	1003	67.00	100.0
06/09/2019	03:48P	88.70	65	1003	67.00	100.0
06/09/2019	03:54P	88.61	66	1003	67.00	100.0
06/09/2019	03:59P	88.41	65	1003	67.00	100.0
06/09/2019	04:04P	88.30	65	1002	67.00	100.0
06/09/2019	04:08P	88.50	65	1002	67.00	100.0
06/09/2019	04:14P	88.88	65	1002	67.00	100.0
06/09/2019	04:19P	89.06	65	1002	67.00	100.0
06/09/2019	04:24P	88.97	65	1002	67.00	100.0
06/09/2019	04:30P	88.93	66	1002	67.00	100.0
06/09/2019	04:35P	88.95	66	1002	67.00	100.0
06/09/2019	04:39P	88.93	66	1002	67.00	100.0
06/09/2019	04:44P	88.72	66	1002	67.00	100.0
06/09/2019	04:50P	88.52	66	1002	67.00	100.0
06/09/2019	04:55P	88.45	66	1002	67.00	100.0
06/09/2019	05:00P	88.59	66	1002	67.00	100.0
06/09/2019	05:06P	88.86	66	1002	67.00	100.0
06/09/2019	05:11P	88.86	65	1002	67.00	100.0
06/09/2019	05:15P	88.47	66	1002	67.00	100.0
06/09/2019	05:20P	88.27	67	1002	67.00	100.0
06/09/2019	05:26P	88.03	67	1002	67.00	100.0
06/09/2019	05:31P	87.78	67	1002	67.00	100.0
06/09/2019	05:36P	87.60	68	1002	67.00	100.0
06/09/2019	05:42P	86.95	68	1002	67.00	100.0
06/09/2019	05:46P	86.85	68	1002	67.00	100.0
06/09/2019	05:49P	86.68	69	1002	67.00	100.0
06/09/2019	05:52P	86.61	69	1002	67.00	100.0
06/09/2019	05:56P	86.58	69	1002	67.00	100.0
06/09/2019	05:59P	86.43	70	1002	67.00	100.0
06/09/2019	06:02P	86.36	70	1002	67.00	100.0
06/09/2019	06:05P	86.31	70	1002	67.00	100.0
06/09/2019	06:08P	86.23	70	1002	67.00	100.0
06/09/2019	06:11P	86.14	71	1002	67.00	100.0
06/09/2019	06:14P	85.96	71	1002	67.00	100.0
06/09/2019	06:17P	85.77	71	1002	67.00	100.0
06/09/2019	06:20P	85.53	71	1002	67.00	100.0
06/09/2019	06:24P	85.37	71	1002	67.00	100.0
06/09/2019	06:27P	85.30	72	1003	67.00	100.0
06/09/2019	06:30P	85.10	72	1003	67.00	100.0
06/09/2019	06:32P	84.94	73	1003	67.00	100.0
06/09/2019	06:35P	84.67	74	1003	67.00	100.0
06/09/2019	06:38P	84.47	74	1003	67.00	100.0
06/09/2019	06:42P	84.33	74	1003	67.00	100.0
06/09/2019	06:45P	84.25	74	1003	67.00	100.0
06/09/2019	06:48P	84.13	74	1003	67.00	100.0
06/09/2019	06:51P	83.93	74	1003	67.00	100.0
06/09/2019	06:54P	83.68	75	1003	67.00	100.0
06/09/2019	06:57P	83.55	75	1003	67.00	100.0
06/09/2019	07:05P	83.43	75	1003	67.00	100.0
06/09/2019	07:10P	83.25	75	1003	67.00	100.0
06/09/2019	07:14P	83.12	75	1003	67.00	100.0
06/09/2019	07:20P	82.99	76	1003	67.00	100.0